<svg xmlns="http://www.w3.org/2000/svg" width="425" height="36" viewBox="0 0 425 36">
  <g fill="none">
    <path fill="#003867" d="M5.745,10.174 C4.281,8.604 2.817,7.041 1.355,5.488 C1.31001549,6.92253014 1.29567888,8.35785752 1.312,9.793 L1.33,10.893 C1.335,11.276 1.343,11.663 1.354,12.057 C1.364,12.451 1.377,12.817 1.388,13.155 C1.398,13.493 1.41,13.788 1.422,14.042 C1.432,14.296 1.442,14.468 1.455,14.558 C1.05070498,14.5108223 0.642295015,14.5108223 0.238,14.558 C0.261,14.445 0.288,14.236 0.315,13.933 C0.343,13.628 0.368,13.265 0.39,12.843 C0.413,12.421 0.44,11.963 0.466,11.466 C0.493,10.972 0.516,10.476 0.534,9.982 C0.551,9.486 0.564,9.002 0.574,8.529 C0.587,8.055 0.594,7.633 0.594,7.262 C0.594,6.18 0.591,5.252 0.584,4.475 C0.582728144,3.89476262 0.568724774,3.314623 0.542,2.735 L0.812,2.735 C1.5,3.479 2.234,4.275 3.017,5.125 C3.797,5.975 4.577,6.815 5.347,7.642 C6.117,8.47 6.85,9.252 7.542,9.99 C8.232,10.727 8.839,11.356 9.356,11.874 L9.356,9.577 C9.356,8.395 9.348,7.245 9.332,6.124 C9.31707177,5.06802342 9.28039733,4.01246628 9.222,2.958 C9.447,3.015 9.638,3.042 9.796,3.042 C9.931,3.042 10.111,3.015 10.336,2.958 C10.314,3.206 10.288,3.578 10.261,4.073 C10.233,4.567 10.205,5.096 10.178,5.659 C10.148,6.222 10.123,6.773 10.102,7.312 C10.08,7.852 10.069,8.287 10.069,8.612 L10.069,9.63 C10.069,10.013 10.072,10.413 10.079,10.83 C10.083,11.245 10.089,11.665 10.095,12.087 C10.1,12.509 10.105,12.903 10.112,13.269 C10.118,13.636 10.122,13.953 10.122,14.224 L10.122,14.781 L9.884,14.781 C8.53372786,13.2201048 7.15448846,11.6845049 5.747,10.175 L5.745,10.174 Z M13.555,5.143 C13.527,4.426 13.495,3.698 13.461,2.955 C13.608,2.975 13.749,2.998 13.884,3.015 C14.1529357,3.04890397 14.4250643,3.04890397 14.694,3.015 C14.83,2.997 14.97,2.975 15.117,2.955 C15.083,3.695 15.052,4.425 15.023,5.142 C14.9947364,5.87032278 14.9807337,6.59912907 14.981,7.328 L14.981,10.231 C14.981,10.975 14.996,11.708 15.024,12.426 C15.052,13.146 15.084,13.856 15.118,14.556 C14.8426643,14.5318197 14.5663953,14.519808 14.29,14.52 C14.0129525,14.5194165 13.7360149,14.5310946 13.46,14.555 C13.495,13.855 13.526,13.147 13.555,12.425 C13.582,11.707 13.595,10.975 13.595,10.231 L13.595,7.33 C13.595,6.586 13.583,5.858 13.555,5.143 Z M18.334,5.116 C18.304,4.396 18.274,3.676 18.24,2.956 C18.747,2.976 19.25,2.999 19.752,3.016 C20.252,3.033 20.756,3.04 21.264,3.04 C21.77,3.04 22.271,3.032 22.766,3.015 C23.262,2.999 23.763,2.978 24.27,2.955 C24.2021205,3.28992869 24.2021205,3.63507131 24.27,3.97 C23.91,3.947 23.58,3.925 23.282,3.902 C22.982,3.882 22.669,3.857 22.337,3.836 C21.5024405,3.77465391 20.6658014,3.74596533 19.829,3.75 C19.817,4.11 19.804,4.455 19.786,4.78 C19.7684836,5.1510673 19.760481,5.5225226 19.762,5.894 C19.762,6.334 19.765,6.761 19.77,7.177 C19.776,7.595 19.78,7.909 19.78,8.124 C20.5850623,8.12593359 21.3900278,8.10592617 22.194,8.064 C22.519,8.047 22.822,8.03 23.097,8.012 C23.372,7.996 23.634,7.977 23.882,7.952 C23.8137416,8.29194071 23.8137416,8.64205929 23.882,8.982 C23.589,8.949 23.249,8.922 22.862,8.898 C22.4732934,8.87716424 22.084221,8.86382843 21.695,8.858 L20.597,8.838 C20.3243586,8.83331273 20.0516817,8.83097931 19.779,8.831 C19.779,8.931 19.775,9.043 19.769,9.161 C19.764,9.279 19.761,9.428 19.761,9.607 L19.761,11.278 C19.761,11.921 19.764,12.45 19.769,12.866 C19.775,13.284 19.784,13.598 19.795,13.811 L20.977,13.811 C21.7858154,13.8099488 22.5943336,13.7799295 23.401,13.721 C23.766,13.691 24.085,13.651 24.354,13.594 C24.3299792,13.679465 24.3155569,13.7673406 24.311,13.856 C24.3060758,13.9432498 24.3034083,14.0306123 24.303,14.118 C24.303,14.298 24.321,14.444 24.353,14.558 C23.8500032,14.5345952 23.3465407,14.5225921 22.843,14.522 L19.778,14.522 C19.27,14.522 18.758,14.535 18.24,14.558 C18.273,13.838 18.304,13.118 18.334,12.404 C18.361091,11.67565 18.3744267,10.9468535 18.374,10.218 L18.374,7.31 C18.3732021,6.57847353 18.3591998,5.84702106 18.332,5.116 L18.334,5.116 Z M26.862,5.143 C26.834,4.426 26.802,3.698 26.768,2.955 C27.196,2.975 27.622,2.998 28.043,3.015 C28.465,3.032 28.891,3.039 29.318,3.039 C29.745,3.039 30.171,3.024 30.593,2.997 C31.015,2.967 31.439,2.954 31.867,2.954 C32.857,2.954 33.705,3.084 34.409,3.344 C35.111,3.601 35.687,3.97 36.139,4.448 C36.589,4.926 36.917,5.511 37.126,6.203 C37.333,6.896 37.439,7.676 37.439,8.543 C37.439,9.668 37.244,10.617 36.855,11.389 C36.468,12.161 35.972,12.783 35.37,13.255 C34.7806619,13.7212772 34.1030646,14.0634775 33.378,14.261 C32.6989314,14.4502817 31.9979249,14.5494649 31.293,14.556 C30.909,14.556 30.533,14.55 30.161,14.538 C29.7844656,14.5252502 29.4077498,14.5185827 29.031,14.518 L27.901,14.518 C27.528,14.518 27.151,14.531 26.767,14.554 C26.801,13.854 26.832,13.146 26.861,12.424 C26.888,11.706 26.903,10.974 26.903,10.23 L26.903,7.328 C26.905,6.586 26.89,5.858 26.863,5.143 L26.862,5.143 Z M28.39,13.813 C28.626,13.87 28.947,13.913 29.352,13.94 C29.758,13.97 30.174,13.983 30.602,13.983 C31.222,13.983 31.84,13.909 32.459,13.763 C33.0701614,13.6205716 33.6396162,13.3373852 34.122,12.936 C34.61,12.53 35.012,11.976 35.32,11.272 C35.63,10.569 35.785,9.659 35.785,8.545 C35.785,7.565 35.665,6.76 35.423,6.129 C35.181,5.499 34.849,5.001 34.427,4.634 C33.992207,4.2627731 33.4741876,4.00204809 32.917,3.874 C32.2851723,3.72839135 31.6383602,3.65790328 30.99,3.664 C30.1206084,3.66556857 29.2521939,3.72234952 28.39,3.834 C28.3542191,4.39816152 28.3285483,4.96291881 28.313,5.528 C28.296,6.118 28.288,6.718 28.288,7.326 L28.288,10.23 C28.288,11.448 28.323,12.64 28.39,13.81 L28.39,13.813 Z M40.084,5.116 C40.057,4.396 40.024,3.676 39.991,2.956 C40.499,2.976 41.003,2.999 41.503,3.016 C42.005,3.033 42.509,3.04 43.015,3.04 C43.5161061,3.04026503 44.0171799,3.03193047 44.518,3.015 C45.013,2.999 45.515,2.978 46.021,2.955 C45.988,3.125 45.971,3.295 45.971,3.462 C45.971,3.632 45.988,3.8 46.021,3.97 C45.661,3.947 45.331,3.925 45.034,3.902 C44.736,3.882 44.42,3.857 44.088,3.836 C43.2534411,3.77464373 42.4168015,3.74595513 41.58,3.75 C41.57,4.11 41.555,4.455 41.538,4.78 C41.5204836,5.1510673 41.512481,5.5225226 41.514,5.894 C41.514,6.334 41.516,6.761 41.522,7.177 C41.529,7.595 41.532,7.909 41.532,8.124 C42.3373963,8.12600992 43.1426971,8.10600244 43.947,8.064 C44.2478023,8.04910552 44.5484789,8.03177161 44.849,8.012 C45.124,7.996 45.387,7.977 45.634,7.952 C45.5687912,8.29223708 45.5687912,8.64176292 45.634,8.982 C45.2947926,8.94509001 44.9546757,8.91708039 44.614,8.898 C44.2256269,8.8771647 43.8368879,8.86382888 43.448,8.858 L42.351,8.838 C42.0776918,8.83331505 41.8043484,8.83098164 41.531,8.831 C41.531,8.931 41.528,9.043 41.521,9.161 C41.516,9.279 41.514,9.428 41.514,9.607 L41.514,11.278 C41.514,11.921 41.516,12.45 41.522,12.866 C41.529,13.284 41.537,13.598 41.548,13.811 L42.73,13.811 C43.5388247,13.8104412 44.3473608,13.7804213 45.154,13.721 C45.519,13.691 45.838,13.651 46.108,13.594 C46.0843335,13.6795069 46.070247,13.76738 46.066,13.856 C46.06,13.952 46.056,14.038 46.056,14.118 C46.056,14.298 46.074,14.444 46.108,14.558 C45.6043368,14.534577 45.1002073,14.5225739 44.596,14.522 L41.532,14.522 C41.025,14.522 40.512,14.535 39.995,14.558 C40.029,13.838 40.06,13.118 40.088,12.404 C40.116,11.689 40.13,10.961 40.13,10.218 L40.13,7.31 C40.1290405,6.57845602 40.1143712,5.84699425 40.086,5.116 L40.084,5.116 Z M48.612,5.143 C48.5839425,4.41354457 48.5529422,3.6842053 48.519,2.955 C48.845,2.975 49.165,2.998 49.481,3.015 C49.796,3.032 50.117,3.039 50.443,3.039 C50.77,3.039 51.091,3.024 51.406,2.997 C51.721,2.967 52.043,2.954 52.369,2.954 C52.842,2.954 53.292,2.999 53.721,3.089 C54.149,3.179 54.521,3.329 54.844,3.536 C55.164,3.746 55.418,4.018 55.604,4.354 C55.79,4.692 55.881,5.114 55.881,5.622 C55.881,6.162 55.761,6.626 55.519,7.015 C55.279,7.405 54.981,7.725 54.633,7.978 C54.283,8.231 53.908,8.428 53.51,8.568 C53.11,8.71 52.747,8.801 52.42,8.846 C52.556,9.016 52.74,9.252 52.978,9.556 C53.214,9.86 53.48,10.196 53.773,10.561 C54.065,10.926 54.369,11.309 54.685,11.709 C54.999,12.109 55.303,12.493 55.595,12.859 C55.888,13.223 56.165,13.557 56.423,13.862 C56.683,14.167 56.89,14.397 57.048,14.555 C56.880319,14.5319027 56.7112641,14.5202091 56.542,14.52 L55.544,14.52 C55.376,14.52 55.212,14.533 55.054,14.556 C54.887,14.32 54.63,13.964 54.286,13.492 C53.91309,12.9800544 53.533053,12.4733384 53.146,11.972 C52.7274204,11.4295534 52.3027267,10.8918524 51.872,10.359 C51.439,9.823 51.042,9.369 50.682,8.999 L50.04,8.999 L50.04,10.231 C50.04,10.975 50.054,11.708 50.082,12.426 C50.11,13.146 50.142,13.856 50.175,14.556 C49.8996643,14.5318197 49.6233953,14.519808 49.347,14.52 C49.055,14.52 48.779,14.533 48.52,14.556 C48.554,13.856 48.585,13.148 48.613,12.426 C48.643,11.708 48.656,10.976 48.656,10.232 L48.656,7.328 C48.656,6.586 48.641,5.858 48.612,5.143 L48.612,5.143 Z M50.554,8.36 C50.741,8.37 50.946,8.376 51.17,8.376 C51.52,8.376 51.882,8.336 52.26,8.259 C52.637,8.179 52.983,8.041 53.298,7.844 C53.613,7.647 53.875,7.384 54.083,7.051 C54.291,6.717 54.396,6.299 54.396,5.791 C54.396,5.353 54.316,4.991 54.151,4.703 C53.9989945,4.42706761 53.7820782,4.19230382 53.519,4.019 C53.262179,3.85071994 52.9757926,3.73263643 52.675,3.671 C52.3800954,3.61087808 52.0799688,3.58006152 51.779,3.579 C51.385,3.579 51.059,3.587 50.799,3.604 C50.539,3.62 50.321,3.639 50.142,3.664 L50.075,5.504 C50.0530345,6.11141867 50.042,6.7191843 50.042,7.327 L50.042,8.29 C50.198,8.325 50.372,8.348 50.556,8.36 L50.554,8.36 Z M59.048,12.977 C59.198,13.187 59.386,13.375 59.606,13.543 C60.1084175,13.9230573 60.7230772,14.1250119 61.353,14.117 C61.6976993,14.1223662 62.0398087,14.0566676 62.358,13.924 C62.6442291,13.8021945 62.9027756,13.6235933 63.118,13.399 C63.328,13.179 63.488,12.919 63.598,12.623 C63.7118538,12.3175395 63.7694497,11.9939857 63.768,11.668 C63.768,11.148 63.635,10.738 63.372,10.435 C63.0941383,10.1209873 62.7587798,9.86301918 62.384,9.675 C61.99,9.472 61.566,9.285 61.109,9.118 C60.653,8.948 60.227,8.738 59.834,8.483 C59.4407601,8.23228007 59.1045135,7.90182497 58.847,7.513 C58.581,7.117 58.45,6.59 58.45,5.926 C58.45,5.451 58.536,5.022 58.704,4.633 C58.874,4.243 59.118,3.91 59.439,3.629 C59.759,3.349 60.144,3.129 60.595,2.969 C61.045,2.814 61.551,2.734 62.115,2.734 C62.655,2.734 63.122,2.8 63.515,2.929 C63.91,3.059 64.275,3.257 64.613,3.529 C64.513,3.719 64.427,3.924 64.361,4.136 C64.2796205,4.4023771 64.211866,4.67272756 64.158,4.946 L63.954,4.946 C63.8884168,4.7699081 63.8122788,4.59792956 63.726,4.431 C63.6252089,4.23934839 63.4934329,4.06567438 63.336,3.917 C63.165017,3.7534646 62.9684177,3.61902039 62.754,3.519 C62.4989923,3.40693752 62.222464,3.35231465 61.944,3.359 C61.629,3.359 61.339,3.409 61.074,3.511 C60.8164778,3.60669122 60.5810583,3.75365826 60.382,3.943 C60.1842922,4.12998155 60.0288212,4.35705107 59.926,4.609 C59.819,4.869 59.766,5.149 59.766,5.453 C59.766,5.983 59.898,6.4 60.162,6.703 C60.440803,7.018641 60.7758208,7.27973784 61.15,7.473 C61.544,7.68 61.968,7.868 62.424,8.03 C62.88,8.193 63.304,8.394 63.698,8.63 C64.093,8.867 64.422,9.17 64.686,9.543 C64.951,9.913 65.0830506,10.41 65.0830506,11.029 C65.0855561,11.5316538 64.9911665,12.0300852 64.805,12.497 C64.618,12.957 64.348,13.36 63.995,13.704 C63.639,14.048 63.205,14.311 62.693,14.499 C62.18,14.683 61.597,14.776 60.945,14.776 C60.247,14.776 59.681,14.682 59.248,14.499 C58.8575533,14.3377391 58.4908581,14.1241139 58.158,13.864 C58.250218,13.6377446 58.3211904,13.4034019 58.37,13.164 C58.41,12.956 58.446,12.688 58.48,12.362 L58.68,12.362 C58.773,12.562 58.895,12.769 59.046,12.976 L59.048,12.977 Z M72.702,4.856 C73.016,5.614 73.337,6.383 73.665,7.161 C74.2891971,8.64821758 74.9225424,10.131579 75.565,11.611 C75.851,12.271 76.111,12.858 76.341,13.378 C76.571,13.896 76.761,14.288 76.907,14.56 C76.7590633,14.5372348 76.6096732,14.5252034 76.46,14.524 L75.564,14.524 C75.424,14.524 75.274,14.536 75.117,14.559 C75.039,14.299 74.931,13.986 74.797,13.619 C74.661,13.253 74.512,12.869 74.35,12.472 L73.852,11.255 C73.682,10.845 73.524,10.455 73.379,10.081 C73.017,10.071 72.651,10.063 72.279,10.056 C71.907,10.052 71.536,10.048 71.165,10.048 C70.815,10.048 70.473,10.051 70.135,10.055 L69.105,10.08 C68.745,10.96 68.418,11.795 68.125,12.588 C67.835,13.383 67.613,14.038 67.467,14.558 C67.2602381,14.5335747 67.0521991,14.5215532 66.844,14.522 C66.617,14.522 66.41,14.534 66.219,14.557 C67.129,12.585 68.019,10.627 68.887,8.679 C69.753,6.732 70.625,4.749 71.504,2.734 L71.824,2.734 C72.091,3.386 72.384,4.091 72.701,4.854 L72.702,4.856 Z M69.29,0.252 C69.44904,0.0880574653 69.6686116,-0.00309908653 69.897,0 C70.134,0 70.337,0.084 70.507,0.252 C70.674,0.422 70.759,0.625 70.759,0.862 C70.7613003,1.09034 70.6694239,1.30954109 70.505,1.468 C70.3455847,1.63344354 70.1247241,1.72540844 69.895,1.722 C69.6665197,1.72501937 69.4470445,1.63302811 69.289,1.468 C69.1246897,1.3091307 69.0331623,1.08953722 69.036,0.861 C69.036,0.626 69.121,0.423 69.289,0.253 L69.29,0.252 Z M69.424,9.305 C69.717,9.305 70.022,9.311 70.336,9.321 C70.652,9.334 70.956,9.341 71.248,9.341 C71.562,9.341 71.878,9.338 72.193,9.331 C72.509,9.326 72.823,9.316 73.139,9.307 L71.264,5.017 L69.424,9.307 L69.424,9.305 Z M72.617,0.252 C72.7764158,0.0880033223 72.9963114,-0.00313762519 73.225,8.31339121e-16 C73.461,8.31339121e-16 73.665,0.084 73.832,0.252 C74,0.422 74.085,0.625 74.085,0.862 C74.0875615,1.09019118 73.996056,1.30937027 73.832,1.468 C73.6737873,1.63338638 73.4538497,1.72541958 73.225,1.722 C72.9958746,1.72533462 72.7756605,1.63333729 72.617,1.468 C72.4522867,1.30940588 72.3606832,1.08962973 72.364,0.861 C72.364,0.626 72.448,0.423 72.617,0.253 L72.617,0.252 Z M87.182,14.16 C86.962,14.266 86.698,14.362 86.388,14.448 C86.078,14.532 85.732,14.608 85.348,14.675 C84.9527685,14.744077 84.5522208,14.7782089 84.151,14.777031 C83.261,14.777031 82.441,14.65 81.686,14.397 C80.9588611,14.1593466 80.2930594,13.7643043 79.736,13.24 C79.1778155,12.7061173 78.7403524,12.0589584 78.453,11.342 C78.143,10.592 77.988,9.74 77.988,8.782 C77.988,7.826 78.142,6.972 78.453,6.224 C78.7427491,5.50352711 79.1864306,4.85506954 79.753,4.324 C80.3299431,3.79483788 81.0111994,3.39221542 81.753,3.142 C82.531,2.872 83.387,2.736 84.32,2.736 C85.063,2.736 85.74,2.812 86.354,2.966 C86.9125854,3.0997022 87.4580923,3.28309959 87.984,3.514 C87.8785341,3.71595835 87.8043548,3.93276414 87.764,4.157 C87.707,4.427 87.662,4.653 87.629,4.831 L87.526,4.867 C87.3817433,4.70137214 87.223492,4.54847401 87.053,4.41 C86.8304312,4.22712737 86.5929341,4.06322093 86.343,3.92 C86.0552492,3.75448532 85.7500564,3.62134076 85.433,3.523 C85.0712386,3.4135063 84.6949528,3.35955853 84.317,3.363 C83.653,3.363 83.037,3.47 82.467,3.685 C81.9034047,3.89578708 81.3957054,4.23311289 80.983,4.671 C80.56,5.117 80.231,5.681 79.995,6.361 C79.759,7.041 79.64,7.849 79.64,8.785 C79.64,9.719 79.76,10.527 79.996,11.207 C80.232,11.889 80.561,12.453 80.984,12.897 C81.406,13.341 81.9,13.671 82.469,13.884 C83.036,14.097 83.653,14.204 84.317,14.204 C84.723,14.204 85.097,14.154 85.44,14.052 C86.0552353,13.8759565 86.6373346,13.5999407 87.163,13.235 C87.393,13.071 87.588,12.928 87.745,12.805 L87.813,12.871 L87.661,13.866 C87.563,13.956 87.401,14.054 87.183,14.162 L87.182,14.16 Z M98.682,5.143 C98.652,4.426 98.622,3.698 98.588,2.955 C98.734,2.975 98.875,2.998 99.01,3.015 C99.145,3.032 99.28,3.039 99.416,3.039 C99.55,3.039 99.686,3.029 99.819,3.013 C99.955,2.997 100.095,2.976 100.242,2.953 C100.207,3.696 100.176,4.425 100.148,5.143 C100.119576,5.87099129 100.104907,6.59945458 100.104,7.328 L100.104,10.231 C100.104,10.975 100.12,11.708 100.147,12.426 C100.173,13.146 100.205,13.856 100.24,14.556 C99.9649971,14.53184 99.689062,14.5198284 99.413,14.52 C99.12,14.52 98.843,14.532 98.585,14.555 C98.619,13.855 98.649,13.147 98.679,12.425 C98.706,11.707 98.721,10.975 98.721,10.231 L98.721,8.711 C98.113,8.701 97.525,8.691 96.956,8.686 C95.7793561,8.67564652 94.6026439,8.67564652 93.426,8.686 C92.856,8.692 92.268,8.702 91.659,8.711 L91.659,10.231 C91.659,10.975 91.674,11.708 91.702,12.426 C91.729,13.146 91.762,13.856 91.795,14.556 C91.5196678,14.5317676 91.2433964,14.5197558 90.967,14.52 C90.6906194,14.5194755 90.4143504,14.5311535 90.139,14.555 C90.172,13.855 90.203,13.147 90.233,12.425 C90.26,11.707 90.273,10.975 90.273,10.231 L90.273,7.33 C90.273,6.587 90.26,5.858 90.233,5.143 C90.203,4.426 90.173,3.698 90.139,2.955 C90.285,2.975 90.426,2.998 90.561,3.015 C90.8299169,3.04920208 91.1020831,3.04920208 91.371,3.015 C91.507,2.997 91.647,2.975 91.794,2.955 C91.759,3.695 91.728,4.425 91.7,5.142 C91.6713968,5.87031607 91.6570607,6.59912249 91.657,7.328 L91.657,7.918 C92.265,7.931 92.854,7.94 93.423,7.952 C94.5995357,7.97682903 95.7764643,7.97682903 96.953,7.952 C97.521,7.94 98.108,7.932 98.717,7.919 L98.717,7.329 C98.717,6.585 98.702,5.857 98.675,5.142 L98.682,5.143 Z M103.493,12.977 C103.645,13.187 103.831,13.375 104.053,13.543 C104.555418,13.9230573 105.170077,14.1250119 105.8,14.117 C106.144699,14.1223662 106.486809,14.0566676 106.805,13.924 C107.105,13.794 107.355,13.619 107.565,13.399 C107.775,13.179 107.935,12.919 108.045,12.623 C108.158,12.323 108.215,12.006 108.215,11.668 C108.215,11.148 108.082,10.738 107.819,10.435 C107.540548,10.120784 107.204495,9.86280385 106.829,9.675 C106.436,9.472 106.012,9.285 105.555,9.118 C105.1,8.948 104.675,8.738 104.28,8.483 C103.886611,8.23246747 103.550329,7.90197729 103.293,7.513 C103.03,7.117 102.897,6.59 102.897,5.926 C102.897,5.451 102.981,5.022 103.151,4.633 C103.317597,4.24744277 103.568799,3.90430442 103.886,3.629 C104.206,3.349 104.593,3.129 105.042,2.969 C105.494,2.814 106,2.734 106.562,2.734 C107.104,2.734 107.572,2.8 107.965,2.929 C108.359,3.059 108.725,3.257 109.063,3.529 C108.963,3.719 108.878,3.924 108.81,4.136 C108.730207,4.40258863 108.663461,4.67290964 108.61,4.946 L108.406,4.946 C108.340144,4.76970673 108.263327,4.59770438 108.176,4.431 C108.076143,4.23928666 107.945011,4.06557016 107.788,3.917 C107.617258,3.75316744 107.420607,3.6186878 107.206,3.519 C106.950865,3.40734183 106.674428,3.35273685 106.396,3.359 C106.08,3.359 105.79,3.409 105.526,3.511 C105.268366,3.60706746 105.032691,3.75398189 104.833,3.943 C104.636,4.129 104.483,4.351 104.378,4.609 C104.271,4.869 104.218,5.149 104.218,5.453 C104.218,5.983 104.348,6.4 104.614,6.703 C104.879,7.008 105.209,7.263 105.604,7.473 C105.996,7.68 106.421,7.868 106.876,8.03 C107.333,8.193 107.756,8.394 108.151,8.63 C108.545,8.868 108.874,9.17 109.139,9.543 C109.403,9.913 109.535,10.41 109.535,11.029 C109.538568,11.5317457 109.444142,12.0303698 109.257,12.497 C109.071,12.957 108.802,13.36 108.447,13.704 C108.093,14.048 107.659,14.311 107.147,14.499 C106.633,14.683 106.051,14.776 105.399,14.776 C104.699,14.776 104.135,14.682 103.702,14.499 C103.311712,14.3374183 102.945059,14.1238175 102.612,13.864 C102.714,13.606 102.784,13.372 102.822,13.164 C102.862,12.956 102.899,12.688 102.932,12.362 L103.135,12.362 C103.225,12.562 103.345,12.769 103.498,12.976 L103.493,12.977 Z M111.987,5.143 C111.96,4.426 111.927,3.698 111.895,2.955 C112.041,2.975 112.182,2.998 112.317,3.015 C112.452,3.032 112.587,3.039 112.723,3.039 C112.858,3.039 112.993,3.029 113.127,3.013 C113.262,2.997 113.402,2.976 113.549,2.953 C113.515,3.696 113.484,4.425 113.456,5.143 C113.426,5.857 113.413,6.585 113.413,7.328 L113.413,10.231 C113.413,10.975 113.427,11.708 113.456,12.426 C113.483,13.146 113.516,13.856 113.548,14.556 C113.272998,14.5318323 112.997062,14.5198206 112.721,14.52 C112.428,14.52 112.151,14.532 111.893,14.555 C111.926,13.855 111.957,13.147 111.985,12.425 C112.015,11.707 112.028,10.975 112.028,10.231 L112.028,7.33 C112.028,6.586 112.015,5.858 111.985,5.143 L111.987,5.143 Z M116.802,12.977 C116.952,13.187 117.14,13.375 117.359,13.543 C117.577,13.711 117.833,13.85 118.126,13.957 C118.419,14.064 118.746,14.117 119.106,14.117 C119.476,14.117 119.811,14.053 120.11,13.924 C120.41,13.794 120.664,13.619 120.87,13.399 C121.08,13.179 121.24,12.919 121.353,12.623 C121.463,12.323 121.521,12.006 121.521,11.668 C121.521,11.148 121.391,10.738 121.126,10.435 C120.848564,10.1205319 120.513111,9.86249119 120.138,9.675 C119.744,9.472 119.32,9.285 118.863,9.118 C118.416871,8.95317797 117.990021,8.74025582 117.59,8.483 C117.195526,8.23279905 116.858199,7.90228621 116.6,7.513 C116.335,7.117 116.205,6.59 116.205,5.926 C116.205,5.451 116.289,5.022 116.457,4.633 C116.627,4.243 116.871,3.91 117.193,3.629 C117.513,3.349 117.898,3.129 118.349,2.969 C118.838977,2.80628648 119.352762,2.72685263 119.869,2.734 C120.409,2.734 120.876,2.8 121.269,2.929 C121.663,3.059 122.029,3.257 122.369,3.529 C122.265116,3.7228714 122.179738,3.92610367 122.114,4.136 C122.033088,4.40250679 121.965339,4.67283369 121.911,4.946 L121.708,4.946 C121.64204,4.77006174 121.565912,4.59810521 121.48,4.431 C121.378871,4.23956341 121.247135,4.06594164 121.09,3.917 C120.919509,3.75378327 120.723621,3.6193639 120.51,3.519 C120.253607,3.40686182 119.975762,3.35224854 119.696,3.359 C119.382,3.359 119.092,3.409 118.826,3.511 C118.569336,3.607229 118.334674,3.75414813 118.136,3.943 C117.939,4.129 117.786,4.351 117.679,4.609 C117.573,4.869 117.519,5.149 117.519,5.453 C117.519,5.983 117.653,6.4 117.916,6.703 C118.182,7.008 118.51,7.263 118.904,7.473 C119.299,7.68 119.724,7.868 120.179,8.03 C120.634,8.193 121.059,8.394 121.454,8.63 C121.847,8.867 122.177,9.17 122.44,9.543 C122.707,9.913 122.840029,10.41 122.840029,11.029 C122.84192,11.5317846 122.746851,12.0302207 122.56,12.497 C122.375,12.957 122.103,13.36 121.75,13.704 C121.394,14.048 120.96,14.311 120.448,14.499 C119.936,14.683 119.354,14.776 118.7,14.776 C118.003,14.776 117.436,14.682 117.003,14.499 C116.613097,14.3378902 116.247043,14.1242465 115.915,13.864 C116.017,13.606 116.087,13.372 116.125,13.164 C116.165,12.956 116.202,12.688 116.235,12.362 L116.438,12.362 C116.528,12.562 116.648,12.769 116.802,12.976 L116.802,12.977 Z M133.587,14.16 C133.367,14.266 133.103,14.362 132.794,14.448 C132.484,14.532 132.138,14.608 131.754,14.675 C131.372,14.743 130.972,14.777 130.556,14.777 C129.718523,14.7846392 128.885358,14.656304 128.089,14.397 C127.361916,14.1592264 126.696139,13.7641989 126.139,13.24 C125.580815,12.7061173 125.143352,12.0589584 124.856,11.342 C124.546,10.592 124.391,9.74 124.391,8.782 C124.391,7.826 124.545,6.972 124.856,6.224 C125.145749,5.50352711 125.589431,4.85506954 126.156,4.324 C126.732943,3.79483788 127.414199,3.39221542 128.156,3.142 C128.934,2.872 129.79,2.736 130.723,2.736 C131.467,2.736 132.145,2.812 132.758,2.966 C133.315815,3.10012729 133.86062,3.28351388 134.386,3.514 C134.280534,3.71595835 134.206355,3.93276414 134.166,4.157 C134.11,4.427 134.066,4.653 134.032,4.831 L133.93,4.867 C133.785743,4.70137214 133.627492,4.54847401 133.457,4.41 C133.234431,4.22712737 132.996934,4.06322093 132.747,3.92 C132.458615,3.75435046 132.152745,3.62120289 131.835,3.523 C131.473542,3.41368186 131.097613,3.35973683 130.72,3.363 C130.088902,3.35717665 129.462016,3.46628871 128.87,3.685 C128.306339,3.8956593 127.798613,4.23300323 127.386,4.671 C126.961,5.117 126.633,5.681 126.396,6.361 C126.161,7.041 126.042,7.849 126.042,8.785 C126.042,9.719 126.162,10.527 126.397,11.207 C126.634,11.889 126.962,12.453 127.387,12.897 C127.807,13.341 128.302,13.671 128.87,13.884 C129.462373,14.1011724 130.089097,14.2095787 130.72,14.204 C131.126,14.204 131.5,14.154 131.843,14.052 C132.457803,13.8756338 133.039522,13.5996381 133.565,13.235 C133.795,13.071 133.991,12.928 134.147,12.805 L134.215,12.871 L134.063,13.866 C133.963,13.956 133.803,14.054 133.583,14.162 L133.587,14.16 Z M145.087,5.143 C145.057,4.426 145.027,3.698 144.993,2.955 C145.139,2.975 145.28,2.998 145.415,3.015 C145.55,3.032 145.685,3.039 145.821,3.039 C145.957,3.039 146.091,3.029 146.226,3.013 C146.363,2.997 146.503,2.976 146.65,2.953 C146.614,3.696 146.583,4.425 146.555,5.143 C146.525,5.857 146.512,6.585 146.512,7.328 L146.512,10.231 C146.512,10.975 146.526,11.708 146.555,12.426 C146.582,13.146 146.615,13.856 146.649,14.556 C146.373,14.5317608 146.096062,14.5197491 145.819,14.52 C145.542953,14.5195049 145.267018,14.5311829 144.992,14.555 C145.027,13.855 145.056,13.147 145.086,12.425 C145.113,11.707 145.126,10.975 145.126,10.231 L145.126,8.711 C144.52,8.701 143.932,8.691 143.363,8.686 C142.186356,8.67563732 141.009644,8.67563732 139.833,8.686 C139.263,8.692 138.675,8.702 138.067,8.711 L138.067,10.231 C138.067,10.975 138.081,11.708 138.11,12.426 C138.138,13.146 138.17,13.856 138.205,14.556 C137.929664,14.5318197 137.653395,14.519808 137.377,14.52 C137.100619,14.5194755 136.82435,14.5311535 136.549,14.555 C136.581,13.855 136.612,13.147 136.642,12.425 C136.669,11.707 136.682,10.975 136.682,10.231 L136.682,7.33 C136.682,6.587 136.669,5.858 136.642,5.143 C136.612,4.426 136.582,3.698 136.548,2.955 C136.693,2.975 136.834,2.998 136.968,3.015 C137.236917,3.04920208 137.509083,3.04920208 137.778,3.015 C137.916,2.997 138.056,2.975 138.203,2.955 C138.168,3.695 138.137,4.425 138.109,5.142 C138.081,5.857 138.067,6.585 138.067,7.328 L138.067,7.918 C138.674,7.931 139.264,7.94 139.833,7.952 C141.009536,7.97682903 142.186464,7.97682903 143.363,7.952 C143.933,7.94 144.519,7.932 145.127,7.919 L145.127,7.329 C145.127439,6.59981316 145.114104,5.87068308 145.087,5.142 L145.087,5.143 Z M149.866,5.116 C149.836,4.396 149.806,3.676 149.772,2.956 C150.278,2.976 150.782,2.999 151.284,3.016 C151.784,3.033 152.288,3.04 152.796,3.04 C153.302,3.04 153.802,3.032 154.298,3.015 C154.794,2.999 155.294,2.978 155.802,2.955 C155.767,3.125 155.752,3.295 155.752,3.462 C155.752,3.632 155.767,3.8 155.802,3.97 C155.472519,3.9495308 155.143178,3.92686363 154.814,3.902 C154.514,3.882 154.201,3.857 153.869,3.836 C153.034441,3.77465391 152.197801,3.74596533 151.361,3.75 C151.348,4.11 151.335,4.455 151.317,4.78 C151.299,5.107 151.292,5.478 151.292,5.894 C151.292,6.334 151.294,6.761 151.3,7.177 C151.307,7.595 151.31,7.909 151.31,8.124 C152.115395,8.125928 152.920694,8.10592058 153.725,8.064 C154.051,8.047 154.355,8.03 154.629,8.012 C154.903,7.996 155.165,7.977 155.413,7.952 C155.344742,8.29194071 155.344742,8.64205929 155.413,8.982 C155.12,8.949 154.78,8.922 154.393,8.898 C154.004293,8.87716424 153.615221,8.86382843 153.226,8.858 L152.128,8.838 C151.854692,8.83330564 151.581348,8.83097222 151.308,8.831 C151.308,8.931 151.305,9.043 151.298,9.161 C151.293,9.279 151.291,9.428 151.291,9.607 L151.291,11.278 C151.291,11.921 151.293,12.45 151.299,12.866 C151.306,13.284 151.316,13.598 151.327,13.811 L152.509,13.811 C153.317155,13.8102564 154.125018,13.7802367 154.931,13.721 C155.298,13.691 155.617,13.651 155.886,13.594 C155.861979,13.679465 155.847557,13.7673406 155.843,13.856 C155.837575,13.9432273 155.834907,14.0306042 155.835,14.118 C155.835,14.298 155.853,14.444 155.885,14.558 C155.382003,14.5346072 154.878541,14.5226041 154.375,14.522 L151.31,14.522 C150.803,14.522 150.29,14.535 149.774,14.558 C149.807,13.838 149.838,13.118 149.868,12.404 C149.895091,11.67565 149.908427,10.9468535 149.908,10.218 L149.908,7.31 C149.907202,6.57847353 149.8932,5.84702106 149.866,5.116 L149.866,5.116 Z M163.206,12.977 C163.358,13.187 163.544,13.375 163.763,13.543 C164.265653,13.9247959 164.881866,14.1269136 165.513,14.117 C165.857053,14.1223776 166.198511,14.0566732 166.516,13.924 C166.816,13.794 167.069,13.619 167.278,13.399 C167.485,13.179 167.645,12.919 167.758,12.623 C167.871,12.323 167.926,12.006 167.926,11.668 C167.926,11.148 167.796,10.738 167.53,10.435 C167.252864,10.1210457 166.91817,9.86306663 166.544,9.675 C166.130621,9.46379219 165.704843,9.27778577 165.269,9.118 C164.811,8.948 164.387,8.738 163.993,8.483 C163.599249,8.2325779 163.262619,7.90208017 163.005,7.513 C162.742,7.117 162.609,6.59 162.609,5.926 C162.609,5.451 162.693,5.022 162.863,4.633 C163.029308,4.24754044 163.280162,3.90441034 163.597,3.629 C163.917,3.349 164.304,3.129 164.753,2.969 C165.242977,2.80628648 165.756762,2.72685263 166.273,2.734 C166.813,2.734 167.281,2.8 167.675,2.929 C168.068,3.059 168.435,3.257 168.773,3.529 C168.671,3.719 168.587,3.924 168.519,4.136 C168.439028,4.4027663 168.371291,4.6730483 168.316,4.946 L168.116,4.946 C168.050144,4.76970673 167.973327,4.59770438 167.886,4.431 C167.785539,4.2391388 167.653724,4.06541322 167.496,3.917 C167.325509,3.75378327 167.129621,3.6193639 166.916,3.519 C166.660251,3.40705548 166.383099,3.3524443 166.104,3.359 C165.788,3.359 165.499,3.409 165.234,3.511 C164.976866,3.60747927 164.741596,3.75435309 164.542,3.943 C164.345,4.129 164.192,4.351 164.085,4.609 C163.98,4.869 163.925,5.149 163.925,5.453 C163.925,5.983 164.058,6.4 164.321,6.703 C164.587,7.008 164.915,7.263 165.309,7.473 C165.704,7.68 166.129,7.868 166.584,8.03 C167.041,8.193 167.464,8.394 167.859,8.63 C168.253,8.868 168.582,9.17 168.847,9.543 C169.111,9.913 169.243029,10.41 169.243029,11.029 C169.24492,11.5317846 169.149851,12.0302207 168.963,12.497 C168.782057,12.9524368 168.505893,13.3639562 168.153,13.704 C167.781057,14.0583337 167.337885,14.3293505 166.853,14.499 C166.34,14.683 165.758,14.776 165.103,14.776 C164.407,14.776 163.84,14.682 163.409,14.499 C163.018712,14.3374183 162.652059,14.1238175 162.319,13.864 C162.421,13.606 162.491,13.372 162.529,13.164 C162.569,12.956 162.606,12.688 162.639,12.362 L162.842,12.362 C162.932,12.562 163.052,12.769 163.205,12.976 L163.206,12.977 Z M174.038,3.834 C173.745,3.834 173.438,3.836 173.118,3.842 C172.798,3.848 172.475,3.858 172.155,3.875 C171.835,3.892 171.525,3.912 171.227,3.935 C170.927,3.957 170.661,3.985 170.424,4.02 C170.476332,3.84463611 170.50459,3.66297403 170.508,3.48 C170.508,3.354 170.481,3.18 170.424,2.956 C171.168,2.976 171.894,2.999 172.602,3.016 C173.312,3.033 174.038,3.04 174.782,3.04 C175.524,3.04 176.252,3.032 176.96,3.015 C177.67,2.999 178.396,2.978 179.138,2.955 C179.089483,3.13188515 179.061301,3.31372715 179.054,3.497 C179.054,3.642 179.084,3.817 179.138,4.02 C178.872398,3.98216741 178.605574,3.95348378 178.338,3.934 L177.408,3.874 C177.086,3.857 176.766,3.848 176.444,3.842 C176.137365,3.8364496 175.830685,3.83378282 175.524,3.834 C175.491,4.992 175.474,6.158 175.474,7.328 L175.474,10.232 C175.474,10.976 175.487,11.709 175.516,12.427 C175.543,13.147 175.576,13.857 175.61,14.557 C175.334664,14.5328197 175.058395,14.520808 174.782,14.521 C174.505605,14.520808 174.229336,14.5328197 173.954,14.557 C173.987,13.857 174.018,13.149 174.048,12.427 C174.075,11.709 174.088,10.977 174.088,10.233 L174.088,7.328 C174.088,6.158 174.073,4.993 174.038,3.834 L174.038,3.834 Z M189.288,14.557 C189.140035,14.5346077 188.990647,14.5229107 188.841,14.522 L187.945,14.522 C187.805,14.522 187.657,14.534 187.499,14.557 C187.421,14.297 187.313,13.985 187.179,13.619 C187.044,13.251 186.894,12.869 186.732,12.469 C186.569,12.069 186.402,11.665 186.235,11.253 C186.067,10.843 185.909,10.453 185.762,10.079 C185.402,10.069 185.035,10.061 184.664,10.054 C184.294,10.05 183.922,10.046 183.549,10.046 C183.201,10.046 182.859,10.05 182.519,10.054 L181.491,10.079 C181.148994,10.9089247 180.822272,11.745066 180.511,12.587 C180.265955,13.2350087 180.045794,13.8921561 179.851,14.557 C179.6439,14.532618 179.43553,14.5205967 179.227,14.521 C179,14.521 178.793,14.533 178.602,14.556 C179.515,12.586 180.404,10.626 181.272,8.679 C182.138,6.732 183.012,4.749 183.888,2.734 L184.208,2.734 C184.478,3.388 184.772,4.094 185.088,4.854 C186.024589,7.1130037 186.978618,9.36473757 187.95,11.609 C188.236,12.269 188.496,12.857 188.726,13.377 C188.954,13.893 189.144,14.287 189.29,14.557 L189.288,14.557 Z M181.808,9.305 C182.112065,9.30555183 182.416103,9.31088583 182.72,9.321 C183.034,9.334 183.34,9.341 183.632,9.341 C183.946,9.341 184.262,9.338 184.577,9.331 C184.891,9.326 185.207,9.316 185.522,9.307 L183.647,5.017 L181.807,9.307 L181.808,9.305 Z M200.636,14.557 C200.488035,14.5346077 200.338647,14.5229107 200.189,14.522 L199.294,14.522 C199.154,14.522 199.004,14.534 198.847,14.557 C198.767,14.297 198.659,13.985 198.525,13.619 C198.39,13.251 198.242,12.869 198.078,12.469 C197.915,12.069 197.748,11.665 197.578,11.253 C197.411,10.843 197.253,10.453 197.106,10.079 C196.746,10.069 196.379,10.061 196.008,10.054 C195.638,10.05 195.266,10.046 194.895,10.046 C194.545,10.046 194.202,10.05 193.865,10.054 L192.835,10.079 C192.492994,10.9089247 192.166272,11.745066 191.855,12.587 C191.610629,13.235037 191.391136,13.892184 191.197,14.557 C190.989237,14.5325385 190.780198,14.5205171 190.571,14.521 C190.362156,14.520225 190.153452,14.5319124 189.946,14.556 C190.856,12.586 191.746,10.626 192.613,8.679 C193.48,6.732 194.353,4.749 195.23,2.734 L195.55,2.734 C195.82,3.388 196.114,4.094 196.43,4.854 C197.069208,6.39673784 197.71655,7.9360926 198.372,9.472 C198.929432,10.7770841 199.494776,12.0787747 200.068,13.377 C200.298,13.893 200.485,14.287 200.632,14.557 L200.636,14.557 Z M193.156,9.305 C193.448,9.305 193.751,9.311 194.066,9.321 C194.381,9.334 194.686,9.341 194.979,9.341 C195.292,9.341 195.607,9.338 195.923,9.331 C196.237,9.326 196.553,9.316 196.868,9.307 L194.992,5.017 L193.152,9.307 L193.156,9.305 Z M203.708,3.834 C203.418,3.834 203.11,3.836 202.788,3.842 C202.468,3.848 202.148,3.858 201.828,3.875 C201.505,3.893 201.196,3.912 200.898,3.935 C200.598,3.957 200.331,3.985 200.094,4.02 C200.146889,3.84470227 200.175818,3.66305478 200.18,3.48 C200.18,3.354 200.15,3.18 200.094,2.956 C200.838,2.976 201.564,2.999 202.274,3.016 C202.984,3.033 203.708,3.04 204.452,3.04 C205.194,3.04 205.922,3.032 206.63,3.015 C207.34,2.999 208.066,2.978 208.81,2.955 C208.76001,3.13163207 208.731141,3.31356904 208.724,3.497 C208.724,3.642 208.754,3.817 208.81,4.02 C208.543396,3.98215227 208.275572,3.95346871 208.007,3.934 L207.077,3.874 C206.757227,3.85735377 206.437171,3.84668524 206.117,3.842 C205.794,3.836 205.487,3.834 205.194,3.834 C205.160753,4.99837037 205.144085,6.16315507 205.144,7.328 L205.144,10.232 C205.144,10.976 205.159,11.709 205.186,12.427 C205.213,13.147 205.246,13.857 205.28,14.557 C205.004664,14.5328197 204.728395,14.520808 204.452,14.521 C204.175605,14.520808 203.899336,14.5328197 203.624,14.557 C203.657,13.857 203.688,13.149 203.718,12.427 C203.745,11.709 203.758,10.977 203.758,10.233 L203.758,7.328 C203.758,6.158 203.743,4.993 203.708,3.834 L203.708,3.834 Z M210.878,12.977 C211.03,13.187 211.216,13.375 211.435,13.543 C211.937653,13.9247959 212.553866,14.1269136 213.185,14.117 C213.529053,14.1223776 213.870511,14.0566732 214.188,13.924 C214.488,13.794 214.741,13.619 214.95,13.399 C215.157,13.179 215.317,12.919 215.43,12.623 C215.543,12.323 215.598,12.006 215.598,11.668 C215.598,11.148 215.468,10.738 215.202,10.435 C214.924564,10.1205319 214.589111,9.86249119 214.214,9.675 C213.821,9.472 213.396,9.285 212.941,9.118 C212.485,8.948 212.061,8.738 211.667,8.483 C211.273249,8.2325779 210.936619,7.90208017 210.679,7.513 C210.416,7.117 210.283,6.59 210.283,5.926 C210.283,5.451 210.367,5.022 210.535,4.633 C210.705,4.243 210.949,3.91 211.271,3.629 C211.591,3.349 211.976,3.129 212.427,2.969 C212.916977,2.80628648 213.430762,2.72685263 213.947,2.734 C214.487,2.734 214.955,2.8 215.349,2.929 C215.742,3.059 216.109,3.257 216.447,3.529 C216.345,3.719 216.261,3.924 216.193,4.136 C216.112088,4.40250679 216.044339,4.67283369 215.99,4.946 L215.786,4.946 C215.722066,4.76939781 215.646225,4.59733615 215.559,4.431 C215.458539,4.2391388 215.326724,4.06541322 215.169,3.917 C214.997904,3.75360412 214.801329,3.61917641 214.587,3.519 C214.331865,3.40734183 214.055428,3.35273685 213.777,3.359 C213.46,3.359 213.171,3.409 212.905,3.511 C212.648577,3.60771599 212.414007,3.75457764 212.215,3.943 C212.017,4.129 211.865,4.351 211.757,4.609 C211.652,4.869 211.597,5.149 211.597,5.453 C211.597,5.983 211.73,6.4 211.993,6.703 C212.259,7.008 212.587,7.263 212.981,7.473 C213.376,7.68 213.801,7.868 214.256,8.03 C214.711,8.193 215.136,8.394 215.531,8.63 C215.925,8.868 216.254,9.17 216.519,9.543 C216.783,9.913 216.915029,10.41 216.915029,11.029 C216.91692,11.5317846 216.821851,12.0302207 216.635,12.497 C216.454057,12.9524368 216.177893,13.3639562 215.825,13.704 C215.453057,14.0583337 215.009885,14.3293505 214.525,14.499 C214.012,14.683 213.43,14.776 212.775,14.776 C212.079,14.776 211.512,14.682 211.081,14.499 C210.690712,14.3374183 210.324059,14.1238175 209.991,13.864 C210.093,13.606 210.163,13.372 210.201,13.164 C210.241,12.956 210.278,12.688 210.311,12.362 L210.514,12.362 C210.604,12.562 210.724,12.769 210.877,12.976 L210.878,12.977 Z M222.673,10.098 L222.673,11.145 L218.47,11.145 L218.47,10.098 L222.673,10.098 Z M238.683,4.745 C238.671,3.88 238.643,3.282 238.599,2.955 C238.721,2.977 238.839,2.999 238.952,3.015 C239.234772,3.06228409 239.524732,3.04171958 239.798,2.955 C239.709486,4.00863955 239.6468,5.06428965 239.61,6.121 C239.59,6.747 239.566,7.391 239.545,8.048 C239.522,8.706 239.505,9.345 239.495,9.964 C239.482,10.718 239.367,11.394 239.148,11.989 C238.946202,12.5562313 238.626516,13.0742723 238.21,13.509 C237.790731,13.9342295 237.279676,14.2578292 236.716,14.455 C236.124,14.668 235.446,14.775 234.681,14.775 C232.993,14.775 231.766,14.392 231.001,13.627 C230.234,12.862 229.851,11.65 229.851,9.997 C229.851,9.467 229.866,8.997 229.895,8.587 C229.922,8.177 229.935,7.757 229.935,7.327 C229.937722,5.86906504 229.904379,4.41128581 229.835,2.955 C229.97,2.975 230.115,2.998 230.275,3.015 C230.432,3.032 230.579,3.039 230.713,3.039 C230.836,3.039 230.957,3.031 231.076,3.014 C231.193,2.998 231.314,2.977 231.439,2.954 C231.40998,3.27752423 231.387309,3.60158656 231.371,3.926 C231.314717,4.924584 231.275711,5.92406683 231.254,6.924 C231.241767,7.53192251 231.235766,8.13995446 231.236,8.748 C231.236,9.128 231.242,9.526 231.254,9.936 C231.264,10.348 231.304,10.746 231.371,11.136 C231.439,11.524 231.549,11.896 231.701,12.248 C231.853,12.603 232.068,12.914 232.351,13.178 C232.631,13.444 232.986,13.651 233.414,13.803 C233.842,13.955 234.371,14.033 235.002,14.033 C235.622,14.033 236.144,13.94 236.566,13.761 C236.988,13.581 237.334,13.345 237.606,13.051 C237.876,12.759 238.086,12.421 238.238,12.038 C238.39,11.658 238.5,11.258 238.568,10.841 C238.634,10.423 238.673,10.007 238.685,9.591 C238.697,9.175 238.701,8.791 238.701,8.443 C238.699,6.843 238.695,5.61 238.684,4.743 L238.683,4.745 Z M248.493,10.174 C247.03,8.604 245.565,7.041 244.103,5.488 C244.066911,6.63030081 244.050242,7.77313257 244.053,8.916 C244.05,9.152 244.053,9.446 244.058,9.793 C244.063,10.143 244.068,10.51 244.075,10.893 C244.081,11.276 244.091,11.663 244.1,12.057 C244.112,12.452 244.123,12.817 244.135,13.155 C244.145,13.493 244.155,13.788 244.168,14.042 C244.18,14.296 244.188,14.468 244.201,14.558 C243.796705,14.5108223 243.388295,14.5108223 242.984,14.558 C243.008,14.445 243.034,14.236 243.064,13.933 C243.09,13.628 243.116,13.265 243.137,12.843 C243.16,12.421 243.187,11.963 243.213,11.466 C243.24,10.972 243.263,10.476 243.281,9.982 C243.313869,9.07566291 243.333871,8.1689049 243.341,7.262 C243.341,6.182 243.338,5.252 243.331,4.476 C243.330757,3.89574953 243.316753,3.31558642 243.289,2.736 L243.559,2.736 L245.763,5.126 C246.543,5.976 247.323,6.816 248.093,7.643 C248.863,8.471 249.597,9.253 250.288,9.991 C250.978,10.728 251.584,11.357 252.101,11.875 L252.101,9.577 C252.101,8.395 252.093,7.245 252.078,6.124 C252.062592,5.06803521 252.025917,4.01248785 251.968,2.958 C252.192,3.015 252.385,3.042 252.541,3.042 C252.676,3.042 252.857,3.015 253.081,2.958 C253.059,3.206 253.033,3.578 253.006,4.073 C252.976,4.567 252.949,5.096 252.922,5.659 C252.892,6.222 252.867,6.773 252.846,7.312 C252.823,7.852 252.813,8.287 252.813,8.612 L252.813,9.63 C252.813,10.013 252.815,10.413 252.821,10.83 C252.832495,11.6433311 252.843828,12.4566644 252.855,13.27 C252.861,13.636 252.865,13.953 252.865,14.224 L252.865,14.781 L252.627,14.781 C251.27758,13.2193538 249.898326,11.6837379 248.49,10.175 L248.493,10.174 Z M256.304,5.143 C256.277,4.426 256.244,3.698 256.21,2.955 C256.638,2.975 257.064,2.998 257.485,3.015 C257.907,3.032 258.333,3.039 258.76,3.039 C259.187,3.039 259.614,3.024 260.035,2.997 C260.457,2.967 260.881,2.954 261.31,2.954 C262.3,2.954 263.148,3.084 263.85,3.344 C264.554,3.601 265.13,3.97 265.58,4.448 C266.032,4.925 266.36,5.511 266.57,6.203 C266.776,6.896 266.882,7.676 266.882,8.543 C266.882,9.668 266.687,10.617 266.298,11.389 C265.911,12.161 265.415,12.783 264.814,13.255 C264.224024,13.7214462 263.545739,14.0636501 262.82,14.261 C262.140635,14.4504937 261.43927,14.54968 260.734,14.556 C260.351,14.556 259.976,14.55 259.604,14.538 C259.226799,14.5252287 258.849417,14.5185611 258.472,14.518 L257.342,14.518 C256.968,14.518 256.592,14.531 256.208,14.554 C256.243,13.854 256.274,13.146 256.302,12.424 C256.329,11.706 256.345,10.974 256.345,10.23 L256.345,7.328 C256.347,6.586 256.331,5.858 256.305,5.143 L256.304,5.143 Z M257.834,13.813 C258.069,13.87 258.39,13.913 258.794,13.94 C259.2,13.97 259.616,13.983 260.044,13.983 C260.664,13.983 261.282,13.909 261.901,13.763 C262.512868,13.6208633 263.083037,13.3376619 263.566,12.936 C264.054,12.53 264.456,11.976 264.766,11.272 C265.074,10.569 265.228,9.659 265.228,8.545 C265.228,7.565 265.108,6.76 264.868,6.129 C264.625,5.499 264.291,5.001 263.871,4.634 C263.435413,4.26281869 262.916761,4.00212038 262.359,3.874 C261.727498,3.72846962 261.081026,3.65798204 260.433,3.664 C259.563592,3.66507707 258.695146,3.72186006 257.833,3.834 C257.798,4.372 257.773,4.938 257.755,5.528 C257.739241,6.1272025 257.731574,6.72659047 257.731983,7.326 L257.731983,10.23 C257.731983,11.448 257.767,12.64 257.835,13.81 L257.834,13.813 Z M9.156,25.438 C9.146,24.571 9.116,23.973 9.071,23.648 C9.196,23.67 9.314,23.69 9.427,23.708 C9.70910431,23.7553469 9.99843069,23.7347787 10.271,23.648 C10.1850776,24.7017918 10.1230617,25.7573964 10.085,26.814 L10.018,28.74 C9.996,29.397 9.978,30.038 9.968,30.655 C9.956,31.411 9.841,32.087 9.621,32.682 C9.41925683,33.2492577 9.09956428,33.7673096 8.683,34.202 C8.26367767,34.6274142 7.75217249,34.9507403 7.188,35.147 C6.598,35.362 5.918,35.469 5.153,35.469 C3.465,35.469 2.238,35.083 1.473,34.319 C0.706,33.554 0.323,32.343 0.323,30.689 C0.323,30.159 0.339,29.689 0.366,29.279 C0.394,28.867 0.409,28.449 0.409,28.021 C0.409,27.076 0.397,26.236 0.375,25.503 C0.353,24.773 0.33,24.153 0.308,23.646 C0.443,23.669 0.588,23.689 0.748,23.706 C0.904,23.723 1.051,23.73 1.185,23.73 C1.309,23.73 1.43,23.723 1.548,23.708 C1.666,23.69 1.788,23.671 1.911,23.648 C1.889,23.895 1.865,24.218 1.844,24.618 C1.821,25.018 1.799,25.472 1.776,25.978 C1.754,26.485 1.736,27.03 1.726,27.616 C1.714,28.202 1.709,28.809 1.709,29.44 C1.709,29.823 1.714,30.22 1.725,30.63 C1.737,31.04 1.775,31.44 1.845,31.828 C1.911,32.218 2.021,32.588 2.173,32.943 C2.323,33.297 2.541,33.607 2.823,33.871 C3.103,34.138 3.459,34.347 3.886,34.497 C4.314,34.649 4.843,34.727 5.474,34.727 C6.094,34.727 6.614,34.637 7.036,34.457 C7.459,34.277 7.806,34.04 8.074,33.747 C8.344,33.454 8.554,33.117 8.708,32.733 C8.86101746,32.3460926 8.97166315,31.9437446 9.038,31.533 C9.104,31.118 9.144,30.7 9.155,30.283 C9.165,29.868 9.172,29.485 9.172,29.136 C9.174,27.539 9.169,26.306 9.158,25.439 L9.156,25.438 Z M18.967,30.866 C17.502,29.296 16.039,27.733 14.577,26.18 C14.531987,27.6151964 14.5176504,29.0511909 14.534,30.487 C14.539,30.837 14.544,31.202 14.551,31.585 C14.558,31.968 14.566,32.355 14.577,32.749 L14.61,33.849 C14.62,34.184 14.632,34.481 14.643,34.733 C14.653,34.987 14.665,35.159 14.677,35.249 C14.2724836,35.2057979 13.8645164,35.2057979 13.46,35.249 C13.483,35.136 13.51,34.929 13.536,34.624 C13.566,34.319 13.59,33.958 13.612,33.534 C13.634,33.112 13.662,32.654 13.688,32.159 C13.715,31.663 13.738,31.169 13.756,30.673 C13.772,30.177 13.786,29.693 13.796,29.223 C13.809,28.747 13.816,28.326 13.816,27.953 C13.816,26.873 13.812,25.943 13.806,25.167 C13.8045897,24.5874308 13.7905864,24.0079608 13.764,23.429 L14.034,23.429 C14.722,24.171 15.456,24.969 16.239,25.819 C17.7392404,27.4478435 19.2475924,29.0691969 20.764,30.683 C21.454,31.42 22.06,32.047 22.577,32.565 L22.577,30.27 C22.577,29.087 22.569,27.937 22.552,26.816 C22.5370171,25.7600248 22.5003427,24.7044687 22.442,23.65 C22.668,23.707 22.859,23.734 23.017,23.734 C23.152,23.734 23.331,23.707 23.557,23.65 C23.535,23.898 23.509,24.27 23.481,24.765 C23.453,25.261 23.425,25.788 23.398,26.353 C23.368,26.916 23.342,27.466 23.32,28.007 C23.298,28.547 23.286,28.982 23.286,29.307 L23.286,30.32 C23.286,30.703 23.289,31.103 23.296,31.52 C23.3,31.937 23.306,32.355 23.313,32.78 C23.318,33.2 23.323,33.593 23.33,33.96 C23.335,34.326 23.338,34.645 23.338,34.914 L23.338,35.474 L23.102,35.474 C21.7525278,33.9117445 20.3732751,32.3754631 18.965,30.866 L18.967,30.866 Z M26.778,25.834 C26.748,25.119 26.718,24.391 26.684,23.646 C26.83,23.669 26.971,23.689 27.106,23.706 C27.375072,23.7376578 27.646928,23.7376578 27.916,23.706 C28.052,23.689 28.192,23.67 28.339,23.646 C28.304,24.39 28.273,25.119 28.245,25.834 C28.2163776,26.5629825 28.2020415,27.2924558 28.202,28.022 L28.202,30.926 C28.202,31.668 28.217,32.401 28.245,33.121 C28.272,33.843 28.305,34.551 28.338,35.249 C27.7869061,35.2042705 27.2330939,35.2042705 26.682,35.249 C26.715,34.552 26.746,33.843 26.776,33.122 C26.803,32.402 26.816,31.67 26.816,30.928 L26.816,28.024 C26.816,27.28 26.803,26.551 26.776,25.836 L26.778,25.834 Z M33.997,32.85 C33.625,31.916 33.227,30.932 32.807,29.895 C32.384,28.86 31.951,27.801 31.507,26.721 C31.062,25.641 30.637,24.617 30.232,23.648 C30.389,23.671 30.542,23.691 30.687,23.708 C30.9678237,23.7388186 31.2511763,23.7388186 31.532,23.708 C31.678,23.691 31.83,23.672 31.988,23.648 C32.236,24.392 32.508,25.171 32.806,25.988 C33.106,26.804 33.42,27.634 33.752,28.478 C34.082,29.322 34.425,30.178 34.774,31.044 C35.122,31.911 35.477,32.774 35.837,33.628 C36.04,33.168 36.26,32.651 36.497,32.083 C36.9974411,30.8758129 37.4758537,29.6596112 37.932,28.435 C38.167,27.8 38.396,27.189 38.617,26.603 C38.837,26.019 39.035,25.473 39.217,24.963 C39.397,24.458 39.549,24.019 39.672,23.648 C39.919,23.705 40.128,23.732 40.297,23.732 C40.465,23.732 40.674,23.706 40.922,23.649 C40.042,25.609 39.199,27.549 38.389,29.475 C37.579,31.401 36.799,33.325 36.057,35.25 C35.6865858,35.2068488 35.3124142,35.2068488 34.942,35.25 C34.682,34.586 34.367,33.788 33.996,32.852 L33.997,32.85 Z M42.905,25.81 C42.875,25.088 42.845,24.368 42.811,23.647 C43.319,23.67 43.821,23.69 44.324,23.707 C45.3284119,23.7389956 46.3335881,23.7389956 47.338,23.707 C47.834,23.69 48.335,23.671 48.842,23.647 C48.7747923,23.9816591 48.7747923,24.3263409 48.842,24.661 C48.482,24.641 48.152,24.617 47.855,24.594 C47.555,24.574 47.242,24.549 46.91,24.528 C46.5469135,24.5037435 46.1835552,24.4837421 45.82,24.468 C45.3475372,24.4506746 44.8747785,24.442673 44.402,24.444 C44.39,24.804 44.377,25.147 44.359,25.474 C44.3414967,25.8450677 44.3334941,26.2165227 44.335,26.588 C44.335,27.028 44.338,27.455 44.343,27.871 C44.35,28.287 44.353,28.601 44.353,28.816 C44.848,28.816 45.293,28.81 45.687,28.798 C46.082,28.788 46.441,28.773 46.767,28.758 C47.093,28.738 47.397,28.722 47.671,28.706 C47.946,28.688 48.208,28.669 48.456,28.646 C48.3885827,28.9860238 48.3885827,29.3359762 48.456,29.676 C48.1169223,29.6370482 47.7767765,29.6080357 47.436,29.589 C47.0473063,29.5674972 46.6582339,29.5534946 46.269,29.547 L45.171,29.529 C44.8983614,29.5239794 44.6256846,29.5213126 44.353,29.521 C44.353,29.623 44.35,29.731 44.343,29.851 C44.3375799,29.9999357 44.335246,30.1489676 44.336,30.298 L44.336,31.969 C44.336,32.611 44.339,33.139 44.344,33.559 C44.351,33.974 44.36,34.289 44.371,34.503 L45.553,34.503 C45.98,34.503 46.399,34.493 46.81,34.478 C47.22,34.458 47.61,34.438 47.976,34.408 C48.341,34.382 48.66,34.338 48.929,34.282 C48.906,34.362 48.892,34.448 48.886,34.544 C48.8811048,34.6312511 48.8784373,34.7186128 48.878,34.806 C48.878,34.986 48.896,35.132 48.928,35.246 C48.423,35.224 47.918,35.212 47.418,35.212 L44.353,35.212 C43.846,35.212 43.333,35.224 42.816,35.245 C42.849,34.525 42.88,33.807 42.91,33.093 C42.937,32.378 42.95,31.65 42.95,30.905 L42.95,28.001 C42.9487126,27.2694786 42.9347105,26.5380348 42.908,25.807 L42.905,25.81 Z M51.432,25.834 C51.404,25.119 51.372,24.391 51.338,23.646 C51.665,23.669 51.986,23.689 52.301,23.706 C52.618,23.723 52.939,23.73 53.265,23.73 C53.591,23.73 53.911,23.716 54.228,23.69 C54.542,23.662 54.864,23.646 55.191,23.646 C55.663,23.646 56.113,23.691 56.541,23.781 C56.971,23.871 57.344,24.021 57.664,24.229 C57.984,24.439 58.238,24.711 58.424,25.049 C58.611,25.387 58.704,25.809 58.704,26.315 C58.704,26.855 58.582,27.321 58.34,27.71 C58.1101492,28.085387 57.8083658,28.4116394 57.452,28.67 C57.102,28.924 56.729,29.12 56.33,29.262 C55.93,29.402 55.566,29.496 55.24,29.542 C55.376,29.709 55.56,29.945 55.798,30.25 C56.034,30.553 56.298,30.89 56.591,31.254 C56.885,31.621 57.191,32.004 57.504,32.402 C57.819,32.802 58.124,33.185 58.416,33.55 C58.709,33.915 58.984,34.25 59.244,34.556 C59.504,34.859 59.711,35.089 59.869,35.246 C59.7004866,35.2248886 59.5308305,35.2142016 59.361,35.214 L58.365,35.214 C58.195,35.214 58.033,35.226 57.875,35.247 C57.707,35.011 57.451,34.655 57.107,34.183 C56.3271398,33.1195272 55.5219087,32.074894 54.692,31.05 C54.258,30.517 53.862,30.064 53.502,29.69 L52.862,29.69 L52.862,30.925 C52.862,31.667 52.876,32.4 52.902,33.12 C52.932,33.84 52.962,34.55 52.997,35.247 C52.4459017,35.2023799 51.8920983,35.2023799 51.341,35.247 C51.374,34.55 51.405,33.841 51.434,33.12 C51.464,32.4 51.476,31.667 51.476,30.925 L51.476,28.02 C51.476,27.278 51.461,26.55 51.433,25.834 L51.432,25.834 Z M53.374,29.051 C53.56,29.064 53.766,29.071 53.991,29.071 C54.341,29.071 54.703,29.031 55.081,28.951 C55.4490084,28.8763006 55.8005967,28.7360717 56.119,28.537 C56.4384062,28.3368492 56.707098,28.0654191 56.904,27.744 C57.114,27.412 57.217,26.992 57.217,26.486 C57.217,26.046 57.135,25.683 56.973,25.396 C56.8194608,25.1205408 56.6020349,24.8859677 56.339,24.712 C56.0821821,24.5443435 55.7957229,24.4272483 55.495,24.367 C55.2003254,24.3051616 54.9000925,24.2736639 54.599,24.273 C54.204,24.273 53.879,24.283 53.619,24.299 C53.3619975,24.316 53.141,24.336 52.962,24.359 C52.942,24.979 52.918,25.589 52.896,26.199 C52.8731403,26.807064 52.8618049,27.4155065 52.8619975,28.024 L52.8619975,28.986 C53.018,29.022 53.19,29.043 53.376,29.056 L53.374,29.051 Z M61.87,33.67 C62.4102723,34.3983532 63.2682486,34.8219441 64.175,34.808 C64.5193634,34.8132286 64.8611186,34.7475326 65.179,34.615 C65.477,34.485 65.729,34.31 65.939,34.092 C66.147,33.872 66.307,33.612 66.419,33.315 C66.531,33.018 66.589,32.698 66.589,32.362 C66.589,31.844 66.455,31.432 66.192,31.13 C65.9142358,30.8153588 65.5788839,30.556717 65.204,30.368 C64.809,30.168 64.386,29.978 63.929,29.811 C63.474,29.641 63.049,29.431 62.655,29.179 C62.2626583,28.9271532 61.9266247,28.5969074 61.668,28.209 C61.401,27.813 61.27,27.284 61.27,26.619 C61.27,26.147 61.355,25.716 61.523,25.329 C61.693,24.939 61.937,24.604 62.257,24.323 C62.577,24.043 62.963,23.823 63.414,23.665 C63.864,23.507 64.37,23.429 64.934,23.429 C65.474,23.429 65.94,23.493 66.334,23.622 C66.729,23.754 67.094,23.952 67.432,24.222 C67.332,24.414 67.246,24.618 67.179,24.832 C67.0981453,25.0984471 67.030727,25.3687878 66.977,25.642 L66.774,25.642 C66.7084574,25.4658916 66.6323183,25.2939106 66.546,25.127 C66.4447379,24.9350551 66.3130297,24.7607949 66.156,24.611 C65.9849627,24.4473314 65.787954,24.3131762 65.573,24.214 C65.3182934,24.1009825 65.0415487,24.0463169 64.763,24.054 C64.448,24.054 64.158,24.104 63.893,24.206 C63.628,24.306 63.397,24.45 63.2,24.636 C63.002934,24.8233187 62.8478529,25.0503165 62.745,25.302 C62.637,25.562 62.585,25.844 62.585,26.149 C62.585,26.679 62.715,27.094 62.98,27.399 C63.245,27.702 63.574,27.959 63.968,28.167 C64.378491,28.3835367 64.8042979,28.5697019 65.242,28.724 C65.698,28.888 66.122,29.087 66.516,29.324 C66.912,29.56 67.241,29.864 67.506,30.236 C67.769,30.606 67.9020611,31.103 67.9020611,31.722 C67.9048136,32.225326 67.8104193,32.7244609 67.624,33.192 C67.4419645,33.6471531 67.1659546,34.0587827 66.814,34.4 C66.458,34.742 66.024,35.007 65.512,35.193 C64.999,35.38 64.416,35.473 63.764,35.473 C63.066,35.473 62.5,35.379 62.067,35.193 C61.676951,35.0334595 61.310821,34.8207811 60.979,34.561 C61.081,34.301 61.149,34.067 61.189,33.861 C61.229,33.651 61.266,33.383 61.299,33.057 L61.501,33.057 C61.591,33.259 61.713,33.464 61.866,33.673 L61.87,33.67 Z M70.362,25.834 C70.335,25.119 70.302,24.391 70.27,23.646 C70.416,23.669 70.557,23.689 70.692,23.706 C70.9610562,23.7379268 71.2329438,23.7379268 71.502,23.706 C71.637,23.689 71.777,23.67 71.924,23.646 C71.8916187,24.375274 71.8606186,25.1046086 71.831,25.834 C71.803,26.549 71.791,27.277 71.791,28.022 L71.791,30.926 C71.791,31.668 71.804,32.401 71.831,33.121 C71.861,33.841 71.891,34.551 71.925,35.249 C71.3745662,35.2044616 70.8214338,35.2044616 70.271,35.249 C70.304,34.552 70.335,33.843 70.363,33.122 C70.393,32.402 70.406,31.67 70.406,30.928 L70.406,28.024 C70.406,27.28 70.392,26.551 70.363,25.836 L70.362,25.834 Z M77.48,24.526 C76.8524185,24.5220668 76.2248476,24.5354052 75.598,24.566 C75.278,24.586 74.968,24.604 74.668,24.628 C74.368,24.648 74.103,24.678 73.866,24.712 C73.922,24.509 73.951,24.329 73.951,24.172 C73.951,24.048 73.923,23.872 73.867,23.648 C74.61,23.671 75.337,23.691 76.047,23.708 C77.499171,23.7387052 78.951829,23.7387052 80.404,23.708 C81.114,23.691 81.838,23.672 82.582,23.648 C82.5328874,23.8240759 82.504693,24.0053255 82.498,24.188 C82.498,24.335 82.526,24.508 82.583,24.712 C82.3167032,24.6748594 82.0492133,24.646843 81.781,24.628 C81.152103,24.5774471 80.5218096,24.5460992 79.891,24.534 C79.569,24.528 79.261,24.526 78.971,24.526 C78.935,25.684 78.919,26.85 78.919,28.022 L78.919,30.926 C78.919,31.668 78.933,32.401 78.959,33.121 C78.989,33.843 79.019,34.551 79.054,35.249 C78.5032334,35.2044338 77.9497666,35.2044338 77.399,35.249 C77.434,34.552 77.465,33.843 77.493,33.122 C77.52,32.402 77.533,31.67 77.533,30.928 L77.533,28.024 C77.533,26.852 77.517,25.686 77.483,24.528 L77.48,24.526 Z M89.773,25.547 C90.088,26.307 90.409,27.077 90.736,27.852 C91.3597823,29.3393931 91.9931288,30.8227572 92.636,32.302 C92.923,32.959 93.182,33.549 93.412,34.067 C93.642,34.585 93.832,34.979 93.978,35.249 C93.8299058,35.2278858 93.680584,35.216528 93.531,35.215 L92.637,35.215 C92.4874363,35.2161561 92.338112,35.2271801 92.19,35.248 C92.11,34.988 92.002,34.678 91.868,34.308 C91.7252439,33.9232626 91.5762241,33.5408785 91.421,33.161 L90.924,31.946 C90.756,31.534 90.598,31.143 90.451,30.772 C89.0273414,30.7279022 87.6026586,30.7279022 86.179,30.772 C85.819,31.65 85.492,32.486 85.199,33.279 C84.909,34.072 84.689,34.729 84.542,35.246 C84.1265801,35.2004161 83.7074199,35.2004161 83.292,35.246 C84.205,33.274 85.092,31.316 85.96,29.368 C86.827,27.421 87.7,25.44 88.577,23.425 L88.897,23.425 L89.775,25.542 L89.773,25.547 Z M86.363,20.947 C86.5210396,20.7812454 86.7409998,20.6888404 86.97,20.692 C87.206,20.692 87.408,20.776 87.577,20.946 C87.747,21.114 87.831,21.316 87.831,21.553 C87.831,21.789 87.747,21.993 87.578,22.16 C87.4197173,22.3252844 87.1998263,22.4172981 86.971,22.414 C86.7421503,22.4174196 86.5222127,22.3253864 86.364,22.16 C86.1986136,22.0017873 86.1065804,21.7818497 86.11,21.553 C86.11,21.317 86.193,21.113 86.363,20.946 L86.363,20.947 Z M86.497,29.997 C86.79,29.997 87.094,30.003 87.409,30.015 C87.723,30.025 88.029,30.031 88.319,30.031 C88.9498127,30.0323607 89.5805941,30.0216921 90.211,29.999 L88.336,25.709 L86.496,29.999 L86.497,29.997 Z M89.689,20.947 C89.8468018,20.781502 90.0663459,20.6891196 90.295,20.692 C90.531,20.692 90.735,20.776 90.903,20.946 C91.073,21.114 91.156,21.316 91.156,21.553 C91.156,21.789 91.072,21.993 90.903,22.16 C90.7443395,22.3253373 90.5241254,22.4173346 90.295,22.414 C90.0661503,22.4174196 89.8462127,22.3253864 89.688,22.16 C89.5222454,22.0019604 89.4298404,21.7820002 89.433,21.553 C89.433,21.317 89.518,21.113 89.687,20.946 L89.689,20.947 Z M98.3,24.526 C97.672419,24.5221322 97.0448499,24.5354706 96.418,24.566 C96.098,24.586 95.788,24.604 95.49,24.628 C95.19,24.648 94.924,24.678 94.687,24.712 C94.7393319,24.5366361 94.7675904,24.354974 94.771,24.172 C94.771,24.048 94.745,23.872 94.688,23.648 C95.432,23.671 96.158,23.691 96.868,23.708 C98.3198377,23.7387054 99.7721623,23.7387054 101.224,23.708 C101.932,23.691 102.659,23.672 103.404,23.648 C103.353972,23.8239761 103.324773,24.0052161 103.317,24.188 C103.317,24.335 103.347,24.508 103.403,24.712 C103.136365,24.6748893 102.868543,24.646873 102.6,24.628 C101.97111,24.5773412 101.340813,24.5459931 100.71,24.534 C100.386,24.528 100.08,24.526 99.786,24.526 C99.753,25.684 99.736,26.85 99.736,28.022 L99.736,30.926 C99.736,31.668 99.751,32.401 99.778,33.121 C99.805,33.841 99.838,34.551 99.872,35.249 C99.3212378,35.2043246 98.7677622,35.2043246 98.217,35.249 C98.25,34.552 98.281,33.843 98.311,33.122 C98.339,32.402 98.353,31.67 98.353,30.928 L98.353,28.024 C98.353,26.852 98.336,25.686 98.303,24.528 L98.3,24.526 Z M105.47,33.67 C105.804306,34.1216402 106.266638,34.4623786 106.797,34.648 C107.087,34.755 107.414,34.808 107.777,34.808 C108.147,34.808 108.481,34.744 108.78,34.615 C109.08,34.485 109.333,34.31 109.54,34.092 C109.75,33.872 109.91,33.612 110.022,33.315 C110.134722,33.0099854 110.19163,32.6871732 110.19,32.362 C110.19,31.844 110.06,31.432 109.794,31.13 C109.516661,30.8149045 109.181215,30.55619 108.806,30.368 C108.413,30.168 107.988,29.978 107.533,29.811 C107.076,29.641 106.653,29.431 106.258,29.179 C105.865134,28.9274662 105.528714,28.5971754 105.27,28.209 C105.006,27.813 104.874,27.284 104.874,26.619 C104.874,26.147 104.958,25.716 105.126,25.329 C105.296,24.939 105.54,24.604 105.862,24.323 C106.182,24.043 106.567,23.823 107.018,23.665 C107.468,23.507 107.975,23.429 108.538,23.429 C109.078,23.429 109.546,23.493 109.94,23.622 C110.333,23.754 110.7,23.952 111.038,24.222 C110.936,24.414 110.852,24.618 110.784,24.832 C110.702753,25.0984138 110.635,25.3687575 110.581,25.642 L110.379,25.642 C110.314258,25.4657226 110.238441,25.2937131 110.152,25.127 C110.05102,24.9354037 109.920031,24.7612011 109.764,24.611 C109.592886,24.4478899 109.396303,24.3137946 109.182,24.214 C108.927162,24.1014002 108.650512,24.0467533 108.372,24.054 C108.055,24.054 107.766,24.104 107.5,24.206 C107.236,24.306 107.006,24.45 106.81,24.636 C106.612,24.822 106.46,25.044 106.352,25.302 C106.245,25.562 106.192,25.844 106.192,26.149 C106.192,26.679 106.325,27.094 106.588,27.399 C106.854,27.702 107.182,27.959 107.576,28.167 C107.971,28.377 108.396,28.562 108.851,28.724 C109.305,28.888 109.731,29.087 110.125,29.324 C110.518,29.56 110.848,29.864 111.111,30.236 C111.377,30.606 111.509037,31.103 111.509037,31.722 C111.511178,32.225457 111.416103,32.7245966 111.229,33.192 C111.047367,33.6473653 110.771304,34.0590742 110.419,34.4 C110.046925,34.7536874 109.603749,35.0240243 109.119,35.193 C108.606,35.38 108.024,35.473 107.369,35.473 C106.673,35.473 106.106,35.379 105.675,35.193 C105.284482,35.0331552 104.917732,34.8205072 104.585,34.561 C104.687,34.301 104.757,34.067 104.795,33.861 C104.835,33.651 104.872,33.383 104.905,33.057 L105.108,33.057 C105.198,33.259 105.318,33.464 105.471,33.673 L105.47,33.67 Z M113.964,25.81 C113.937,25.088 113.904,24.368 113.87,23.647 C114.163,23.67 114.462,23.69 114.766,23.707 C115.069,23.724 115.368,23.731 115.661,23.731 C115.955,23.731 116.251,23.718 116.557,23.691 C116.862,23.664 117.161,23.648 117.452,23.648 C117.937,23.648 118.394,23.685 118.822,23.758 C119.218365,23.8206317 119.600765,23.9519335 119.952,24.146 C120.279,24.332 120.539,24.584 120.73,24.898 C120.92,25.212 121.017,25.608 121.017,26.08 C121.017,26.913 120.755,27.565 120.232,28.038 C119.709,28.511 119.022,28.843 118.179,29.034 L118.179,29.069 C119.181,29.113 119.972,29.355 120.552,29.793 C121.132,30.233 121.422,30.936 121.422,31.903 C121.422,32.535 121.292,33.063 121.032,33.493 C120.78019,33.9131547 120.433633,34.2686152 120.02,34.531 C119.602,34.795 119.143,34.981 118.643,35.088 C118.143,35.194 117.643,35.248 117.15,35.248 C116.876554,35.247266 116.603156,35.2405978 116.33,35.228 C116.055,35.218 115.783,35.213 115.512,35.213 L114.692,35.213 C114.416,35.213 114.144,35.225 113.872,35.246 C113.908,34.526 113.939,33.808 113.967,33.094 C113.995,32.38 114.007,31.651 114.007,30.906 L114.007,28.002 C114.007,27.258 113.993,26.528 113.967,25.807 L113.964,25.81 Z M117.476,28.713 C117.866,28.635 118.21,28.503 118.516,28.317 C118.82,28.132 119.064,27.883 119.249,27.573 C119.434,27.263 119.527,26.873 119.527,26.401 C119.527,25.939 119.443,25.571 119.273,25.295 C119.116349,25.0316542 118.896346,24.8116506 118.633,24.655 C118.361572,24.4984537 118.062996,24.3946307 117.753,24.349 C117.428802,24.2982635 117.101144,24.2728533 116.773,24.2729994 C116.481,24.2729994 116.233,24.281 116.03,24.298 C115.850142,24.3129807 115.670739,24.3329885 115.492,24.358 C115.469,24.898 115.445,25.433 115.424,25.962 C115.401378,26.4966979 115.390375,27.0318241 115.390975,27.567 L115.390975,28.835 L116.301,28.835 C116.697,28.835 117.088,28.793 117.477,28.715 L117.476,28.713 Z M115.426,32.885 C115.446,33.448 115.47,34.015 115.493,34.59 C115.706,34.613 115.96,34.633 116.251,34.65 C116.545,34.667 116.844,34.674 117.148,34.674 C117.508,34.674 117.853,34.614 118.188,34.488 C118.518,34.365 118.808,34.181 119.056,33.938 C119.31147,33.6832677 119.512238,33.3790543 119.646,33.044 C119.792,32.689 119.866,32.286 119.866,31.834 C119.866,31.354 119.779,30.956 119.606,30.646 C119.429675,30.3366534 119.168349,30.0843505 118.853,29.919 C118.485352,29.7314482 118.088264,29.6083307 117.679,29.555 C117.173039,29.4852652 116.662734,29.4518464 116.152,29.455 L115.392,29.455 L115.392,31.175 C115.394,31.751 115.402,32.32 115.427,32.885 L115.426,32.885 Z M124.366,25.834 C124.336,25.119 124.306,24.391 124.272,23.646 C124.418,23.669 124.559,23.689 124.694,23.706 C124.963738,23.7377043 125.236262,23.7377043 125.506,23.706 C125.641,23.689 125.781,23.67 125.928,23.646 C125.893795,24.3752071 125.862461,25.1045461 125.834,25.834 C125.806391,26.5630025 125.793055,27.2924755 125.794,28.022 L125.794,30.926 C125.794,31.668 125.807,32.401 125.834,33.121 C125.861,33.841 125.894,34.551 125.928,35.249 C125.376902,35.2043799 124.823098,35.2043799 124.272,35.249 C124.305,34.552 124.336,33.843 124.366,33.122 C124.393,32.402 124.406,31.67 124.406,30.928 L124.406,28.024 C124.406,27.28 124.394,26.551 124.366,25.836 L124.366,25.834 Z M129.146,25.81 C129.116,25.088 129.086,24.368 129.052,23.647 C129.345,23.67 129.644,23.69 129.947,23.707 C130.252,23.724 130.551,23.731 130.843,23.731 C131.133,23.731 131.433,23.718 131.738,23.691 C132.043,23.664 132.34,23.648 132.633,23.648 C133.117,23.648 133.573,23.685 134,23.758 C134.43,23.831 134.807,23.96 135.133,24.146 C135.459,24.332 135.717,24.584 135.908,24.898 C136.098,25.212 136.195,25.608 136.195,26.08 C136.195,26.913 135.935,27.565 135.41,28.038 C134.887,28.511 134.203,28.843 133.36,29.034 L133.36,29.069 C134.36,29.113 135.152,29.355 135.732,29.793 C136.312,30.233 136.602,30.936 136.602,31.903 C136.602,32.535 136.472,33.063 136.212,33.493 C135.952,33.92 135.614,34.265 135.198,34.531 C134.782,34.795 134.323,34.981 133.823,35.088 C133.321,35.194 132.823,35.248 132.329,35.248 C132.055554,35.247266 131.782156,35.2405978 131.509,35.228 C131.233,35.218 130.959,35.213 130.689,35.213 L129.869,35.213 C129.595,35.213 129.321,35.225 129.052,35.246 C129.085,34.526 129.116,33.808 129.146,33.094 C129.173,32.379 129.186,31.651 129.186,30.906 L129.186,28.002 C129.186,27.258 129.172,26.528 129.146,25.807 L129.146,25.81 Z M132.656,28.713 C133.046,28.635 133.391,28.503 133.696,28.317 C133.997881,28.1328231 134.249925,27.877345 134.43,27.573 C134.616,27.263 134.71,26.873 134.71,26.401 C134.71,25.939 134.623,25.571 134.455,25.295 C134.297342,25.0314221 134.076312,24.8114237 133.812,24.655 C133.54173,24.4982794 133.244101,24.3944315 132.935,24.349 C132.610791,24.2983558 132.283141,24.2729462 131.955,24.273 C131.525888,24.2707345 131.097153,24.2988045 130.672,24.357 L130.606,25.962 C130.583,26.492 130.571,27.027 130.571,27.567 L130.571,28.835 L131.484,28.835 C131.878319,28.8335462 132.271541,28.7933531 132.658,28.715 L132.656,28.713 Z M130.606,32.885 C130.626,33.448 130.649,34.015 130.672,34.59 C130.887,34.613 131.139,34.633 131.432,34.65 C131.725,34.667 132.024,34.674 132.328,34.674 C132.688,34.674 133.033,34.614 133.365,34.488 C133.690946,34.3688919 133.987599,34.1813522 134.235,33.938 C134.482,33.698 134.679,33.398 134.825,33.044 C134.972,32.689 135.047,32.286 135.047,31.834 C135.047,31.354 134.959,30.956 134.783,30.646 C134.608294,30.3364462 134.347843,30.083983 134.033,29.919 C133.665233,29.7317408 133.268196,29.6086392 132.859,29.555 C132.352037,29.4852244 131.840732,29.4518058 131.329,29.455 L130.569,29.455 L130.569,31.175 C130.569,31.751 130.582,32.32 130.605,32.885 L130.606,32.885 Z M139.548,25.834 C139.518,25.119 139.488,24.391 139.454,23.646 C139.6,23.669 139.741,23.689 139.876,23.706 C140.145066,23.7377685 140.416934,23.7377685 140.686,23.706 C140.821,23.689 140.963,23.67 141.108,23.646 C141.075,24.39 141.044,25.119 141.016,25.834 C140.986,26.549 140.973,27.277 140.973,28.022 C140.973,29.44 140.979,30.67 140.991,31.712 C141.001,32.752 141.013,33.684 141.025,34.506 C141.825,34.506 142.589,34.496 143.322,34.481 C144.055,34.464 144.842,34.401 145.688,34.287 C145.628,34.49 145.602,34.657 145.602,34.795 C145.602,34.918 145.629,35.07 145.688,35.25 C145.169949,35.2281939 144.651509,35.2168582 144.133,35.216 L141.018,35.216 C140.516,35.216 139.998,35.228 139.455,35.249 C139.488,34.551 139.519,33.842 139.549,33.121 C139.576,32.401 139.589,31.668 139.589,30.926 L139.589,28.022 C139.591112,27.2918184 139.578443,26.5616688 139.551,25.832 L139.548,25.834 Z M148.075,25.834 C148.045,25.119 148.015,24.391 147.981,23.646 C148.128,23.669 148.269,23.689 148.404,23.706 C148.673078,23.7375478 148.944922,23.7375478 149.214,23.706 C149.351,23.689 149.491,23.67 149.638,23.646 C149.603795,24.3752071 149.572461,25.1045461 149.544,25.834 C149.515378,26.5629825 149.501042,27.2924558 149.501,28.022 L149.501,30.926 C149.501,31.668 149.517,32.401 149.544,33.121 C149.571,33.841 149.604,34.551 149.638,35.249 C149.086902,35.2043799 148.533098,35.2043799 147.982,35.249 C148.016,34.552 148.047,33.843 148.077,33.122 C148.104,32.402 148.117,31.67 148.117,30.928 L148.117,28.024 C148.117,27.28 148.105,26.551 148.077,25.836 L148.075,25.834 Z M152.415,26.914 C152.705319,26.1938319 153.148921,25.5454899 153.715,25.014 C154.292453,24.4855253 154.973556,24.0829932 155.715,23.832 C156.493,23.562 157.343,23.428 158.267,23.428 C159.201,23.428 160.057,23.563 160.833,23.832 C161.574962,24.081864 162.256287,24.4845274 162.833,25.014 C163.393,25.534 163.825,26.166 164.133,26.914 C164.445,27.664 164.599,28.516 164.599,29.474 C164.599,30.43 164.444,31.284 164.133,32.032 C163.843825,32.7527798 163.400063,33.4013543 162.833,33.932 C162.259166,34.459328 161.576369,34.8539851 160.833,35.088 C160.002613,35.348748 159.136317,35.476988 158.266,35.468 C157.342,35.468 156.493,35.34 155.716,35.088 C154.972038,34.8533074 154.288401,34.4587571 153.713,33.932 C153.146676,33.4007199 152.703034,32.7523203 152.413,32.032 C152.103,31.284 151.949,30.43 151.949,29.472 C151.949,28.516 152.104,27.664 152.414,26.914 L152.415,26.914 Z M162.589,27.049 C162.352,26.369 162.024,25.806 161.599,25.359 C161.186112,24.921557 160.678927,24.5840039 160.116,24.372 C159.523627,24.1548276 158.896903,24.0464213 158.266,24.052 C157.612,24.052 157.002,24.159 156.434,24.372 C155.86951,24.5831284 155.361092,24.9211616 154.948,25.36 C154.525,25.806 154.195,26.37 153.958,27.05 C153.723,27.73 153.604,28.54 153.604,29.473 C153.604,30.407 153.724,31.215 153.959,31.897 C154.196,32.579 154.526,33.141 154.949,33.585 C155.361269,34.0243458 155.869491,34.362476 156.434,34.573 C157.020071,34.7903903 157.640937,34.8988387 158.266,34.893 C158.896974,34.8994634 159.523857,34.7910297 160.116,34.573 C160.679903,34.361857 161.187667,34.0238041 161.6,33.585 C162.025,33.142 162.353,32.579 162.59,31.897 C162.825,31.215 162.944,30.407 162.944,29.473 C162.944,28.539 162.824,27.731 162.589,27.049 L162.589,27.049 Z M168.72,24.526 C168.092085,24.5220191 167.46418,24.5353575 166.837,24.566 C166.517,24.586 166.207,24.604 165.907,24.628 C165.61,24.648 165.343,24.678 165.107,24.712 C165.158993,24.5365893 165.186915,24.3549281 165.19,24.172 C165.19,24.048 165.163,23.872 165.106,23.648 C165.848,23.671 166.576,23.691 167.284,23.708 C168.736504,23.7387121 170.189496,23.7387121 171.642,23.708 C172.352,23.691 173.078,23.672 173.82,23.648 C173.770787,23.8240541 173.742591,24.0053157 173.736,24.188 C173.736,24.335 173.763,24.508 173.82,24.712 C173.553378,24.6747835 173.285552,24.6467669 173.017,24.628 C172.388096,24.5775531 171.757806,24.5462054 171.127,24.534 C170.819699,24.528437 170.512352,24.5257703 170.205,24.526 C170.171736,25.6910368 170.155067,26.8564884 170.155,28.022 L170.155,30.926 C170.155,31.668 170.168,32.401 170.195,33.121 C170.225,33.843 170.255,34.551 170.289,35.249 C169.738565,35.2044878 169.185435,35.2044878 168.635,35.249 C168.668,34.552 168.699,33.843 168.727,33.122 C168.755,32.402 168.77,31.67 168.77,30.928 L168.77,28.024 C168.77,26.852 168.753,25.686 168.72,24.528 L168.72,24.526 Z M184.298,25.834 C184.268,25.119 184.238,24.391 184.204,23.646 C184.35,23.669 184.491,23.689 184.626,23.706 C184.895066,23.7377685 185.166934,23.7377685 185.436,23.706 C185.573,23.689 185.713,23.67 185.86,23.646 C185.825795,24.3752071 185.794461,25.1045461 185.766,25.834 C185.736,26.549 185.723,27.277 185.723,28.022 L185.723,30.926 C185.723,31.668 185.737,32.401 185.766,33.121 C185.793,33.843 185.826,34.551 185.86,35.249 C185.308902,35.2043799 184.755098,35.2043799 184.204,35.249 C184.239,34.552 184.268,33.843 184.298,33.122 C184.325,32.402 184.338,31.67 184.338,30.928 L184.338,29.408 C183.750392,29.3959401 183.162714,29.3876066 182.575,29.383 C180.80964,29.3636077 179.044084,29.3722755 177.279,29.409 L177.279,30.929 C177.279,31.671 177.292,32.404 177.321,33.124 C177.348,33.846 177.381,34.554 177.415,35.252 C176.863902,35.2073799 176.310098,35.2073799 175.759,35.252 C175.792,34.555 175.823,33.846 175.853,33.125 C175.88,32.405 175.893,31.673 175.893,30.931 L175.893,28.027 C175.893,27.283 175.88,26.554 175.853,25.839 C175.823,25.124 175.793,24.396 175.759,23.651 C175.905,23.674 176.046,23.694 176.181,23.711 C176.450066,23.7427685 176.721934,23.7427685 176.991,23.711 C177.128,23.694 177.268,23.675 177.415,23.651 C177.380795,24.3802071 177.349461,25.1095461 177.321,25.839 C177.291,26.554 177.278,27.282 177.278,28.027 L177.278,28.617 L179.043,28.65 C180.219535,28.6748498 181.396465,28.6748498 182.573,28.65 C183.141,28.64 183.729,28.63 184.337,28.617 L184.337,28.027 C184.337,27.283 184.322,26.554 184.295,25.839 L184.298,25.834 Z M189.077,25.81 C189.05,25.088 189.017,24.368 188.983,23.647 C189.491,23.67 189.993,23.69 190.495,23.707 C191.499412,23.7389652 192.504588,23.7389652 193.509,23.707 C194.004,23.69 194.506,23.671 195.012,23.647 C194.946276,23.981805 194.946276,24.326195 195.012,24.661 C194.652,24.641 194.322,24.616 194.024,24.593 C193.724,24.573 193.411,24.548 193.079,24.527 C192.715913,24.5027435 192.352555,24.4827421 191.989,24.467 C191.516538,24.4496567 191.043779,24.4416551 190.571,24.443 C190.559,24.803 190.546,25.146 190.528,25.473 C190.511,25.798 190.504,26.169 190.504,26.587 C190.504,27.027 190.506,27.454 190.512,27.87 C190.518,28.286 190.52,28.6 190.52,28.815 C191.016,28.815 191.46,28.809 191.854,28.797 C192.249,28.787 192.608,28.772 192.936,28.757 C193.26,28.737 193.563,28.721 193.838,28.705 C194.113,28.687 194.375,28.668 194.623,28.645 C194.555583,28.9850238 194.555583,29.3349762 194.623,29.675 C194.283922,29.6360482 193.943776,29.6070357 193.603,29.588 C193.214306,29.5664972 192.825234,29.5524946 192.436,29.546 C192.069994,29.5403527 191.703994,29.5343527 191.338,29.528 C191.065361,29.522975 190.792685,29.5203082 190.52,29.52 C190.52,29.622 190.518,29.73 190.512,29.85 C190.505741,29.9989141 190.503074,30.1479574 190.504,30.297 L190.504,31.968 C190.504,32.61 190.506,33.138 190.512,33.558 C190.518,33.973 190.526,34.288 190.537,34.502 L191.717,34.502 C192.147,34.502 192.567,34.492 192.977,34.477 C193.387,34.457 193.775,34.437 194.142,34.407 C194.507,34.381 194.826,34.337 195.095,34.281 C195.072,34.361 195.058,34.447 195.055,34.543 C195.048,34.639 195.045,34.727 195.045,34.805 C195.045,34.985 195.062,35.131 195.095,35.245 C194.591289,35.2232165 194.087181,35.2118807 193.583,35.211 L190.518,35.211 C190.012,35.211 189.498,35.223 188.981,35.244 C189.014,34.524 189.047,33.806 189.075,33.092 C189.102,32.378 189.115,31.649 189.115,30.904 L189.115,28 C189.113879,27.2684674 189.099543,26.5370147 189.072,25.806 L189.077,25.81 Z M197.605,33.122 C197.635,32.402 197.648,31.669 197.648,30.927 L197.648,28.023 C197.648,27.279 197.634,26.55 197.605,25.835 C197.578,25.12 197.545,24.392 197.511,23.647 C197.658,23.67 197.799,23.69 197.936,23.707 C198.205053,23.7389736 198.476947,23.7389736 198.746,23.707 C198.881,23.69 199.021,23.671 199.168,23.647 C199.135,24.391 199.104,25.12 199.074,25.835 C199.047,26.55 199.034,27.278 199.034,28.023 L199.034,28.951 C199.034,29.041 199.066,29.087 199.134,29.087 C199.178,29.087 199.258,29.037 199.371,28.937 C199.764,28.599 200.178,28.217 200.611,27.787 C201.054864,27.3501361 201.491588,26.9060773 201.921,26.455 C202.359,25.992 202.793,25.523 203.221,25.045 C203.649,24.565 204.059,24.102 204.453,23.65 C204.576,23.672 204.695,23.692 204.808,23.71 C204.918,23.726 205.033,23.733 205.146,23.733 C205.281,23.733 205.416,23.725 205.55,23.71 C205.684,23.692 205.82,23.673 205.955,23.65 C205.56,23.987 205.115,24.387 204.619,24.848 C204.124,25.311 203.626,25.782 203.124,26.266 C202.624,26.75 202.144,27.226 201.688,27.694 C201.232,28.161 200.851,28.569 200.548,28.919 C201.473902,29.9577843 202.393917,31.001801 203.308,32.051 C204.238,33.114 205.181,34.181 206.138,35.251 C205.969528,35.2292199 205.799872,35.2178649 205.63,35.217 L204.66,35.217 C204.51,35.217 204.354,35.229 204.196,35.25 C203.792,34.79 203.344,34.26 202.854,33.663 C201.962202,32.5782829 201.061505,31.5009132 200.152,30.431 C199.884762,30.1086544 199.605912,29.7961153 199.316,29.494 C199.224,29.404 199.158,29.359 199.113,29.359 C199.056,29.359 199.029,29.392 199.029,29.461 L199.029,30.931 C199.029,31.671 199.042,32.405 199.069,33.125 C199.099,33.845 199.129,34.555 199.163,35.252 C198.611902,35.2073799 198.058098,35.2073799 197.507,35.252 C197.545,34.552 197.577,33.844 197.604,33.124 L197.605,33.122 Z M221.87,25.1 C221.609478,24.8913382 221.326375,24.712554 221.026,24.567 C220.69593,24.4094686 220.350863,24.2855122 219.996,24.197 C219.601552,24.0990378 219.196424,24.0506644 218.79,24.053 C218.09,24.053 217.44,24.16 216.84,24.373 C216.248717,24.5794344 215.71193,24.9172341 215.27,25.361 C214.824,25.807 214.474,26.371 214.222,27.051 C213.968,27.731 213.842,28.541 213.842,29.474 C213.842,30.296 213.954,31.038 214.179,31.704 C214.403,32.368 214.733,32.927 215.166,33.384 C215.6,33.839 216.129,34.191 216.754,34.439 C217.379,34.687 218.084,34.809 218.874,34.809 C219.375147,34.8113093 219.875385,34.7661071 220.368,34.674 C220.608,34.63 220.834,34.574 221.043,34.507 C221.228618,34.4493296 221.406577,34.3694157 221.573,34.269 C221.586,33.933 221.593,33.595 221.599,33.257 C221.604,32.919 221.607,32.575 221.607,32.227 C221.607,31.833 221.599,31.439 221.582,31.044 C221.566895,30.6670894 221.546893,30.2903909 221.522,29.914 C221.911081,29.993026 222.309603,30.0149228 222.705,29.979 C222.83,29.969 222.947,29.946 223.06,29.913 C223.038,30.171 223.022,30.581 223.01,31.138 C222.998,31.695 222.992,32.428 222.992,33.341 C222.992,33.566 222.996,33.794 223.002,34.025 C223.006,34.255 223.01,34.485 223.01,34.709 C222.774,34.799 222.48,34.893 222.123,34.989 C221.769,35.084 221.391,35.164 220.993,35.224 C220.593,35.287 220.191,35.341 219.793,35.392 C219.393,35.444 219.029,35.472 218.703,35.472 C217.701,35.472 216.799,35.348 215.993,35.108 C215.189,34.866 214.503,34.491 213.941,33.985 C213.368317,33.461969 212.92353,32.8142913 212.641,32.092 C212.338,31.338 212.186,30.465 212.186,29.475 C212.186,28.518 212.342,27.665 212.659,26.915 C212.957202,26.1905423 213.412882,25.5415228 213.993,25.015 C214.567,24.498 215.263,24.105 216.079,23.835 C216.895,23.565 217.799,23.43 218.789,23.43 C219.362,23.43 219.872,23.46 220.317,23.522 C220.762,23.585 221.155,23.667 221.499,23.768 C221.843,23.868 222.144,23.975 222.403,24.088 C222.661,24.201 222.893,24.308 223.093,24.408 C222.989142,24.600416 222.907613,24.8040706 222.85,25.015 C222.780939,25.2412289 222.732081,25.4731376 222.704,25.708 L222.504,25.708 C222.31412,25.4846865 222.101657,25.2816065 221.87,25.102 L221.87,25.1 Z M225.57,26.914 C225.859734,26.1940167 226.302644,25.5456898 226.868,25.014 C227.446039,24.4852879 228.127845,24.0827428 228.87,23.832 C229.647,23.562 230.497,23.428 231.42,23.428 C232.355,23.428 233.21,23.563 233.987,23.832 C234.728962,24.081864 235.410287,24.4845274 235.987,25.014 C236.547,25.534 236.979,26.166 237.287,26.914 C237.599,27.664 237.753,28.516 237.753,29.474 C237.753,30.43 237.599,31.284 237.288,32.032 C236.998825,32.7527798 236.555063,33.4013543 235.988,33.932 C235.414166,34.459328 234.731369,34.8539851 233.988,35.088 C233.157613,35.348748 232.291317,35.476988 231.421,35.468 C230.498,35.468 229.649,35.34 228.871,35.088 C228.127394,34.853175 227.44411,34.4586318 226.869,33.932 C226.302676,33.4007199 225.859034,32.7523203 225.569,32.032 C225.259,31.284 225.105,30.43 225.105,29.472 C225.105,28.516 225.26,27.664 225.57,26.914 L225.57,26.914 Z M235.743,27.049 C235.507,26.369 235.179,25.806 234.755,25.359 C234.342215,24.9209692 233.834561,24.5833319 233.271,24.372 C232.678667,24.1546786 232.051915,24.0462675 231.421,24.052 C230.768,24.052 230.158,24.159 229.591,24.372 C229.026151,24.582993 228.517378,24.9210346 228.104,25.36 C227.682,25.806 227.352,26.37 227.116,27.05 C226.88,27.73 226.761,28.54 226.761,29.473 C226.761,30.407 226.881,31.215 227.116,31.897 C227.352,32.579 227.682,33.141 228.104,33.585 C228.516555,34.0244735 229.025132,34.3626122 229.59,34.573 C230.175441,34.7901503 230.795609,34.8985948 231.42,34.893 C232.085,34.893 232.702,34.788 233.27,34.573 C233.834509,34.362476 234.342731,34.0243458 234.755,33.585 C235.179,33.142 235.507,32.579 235.743,31.897 C235.979,31.215 236.098,30.407 236.098,29.473 C236.098,28.539 235.98,27.731 235.743,27.049 L235.743,27.049 Z M229.157,20.945 C229.316415,20.7795565 229.537276,20.6875916 229.767,20.691 C230.002,20.691 230.204,20.775 230.373,20.945 C230.541,21.113 230.625,21.315 230.625,21.552 C230.625,21.788 230.541,21.992 230.373,22.159 C230.214578,22.3240812 229.994779,22.4160562 229.766,22.413 C229.536276,22.4164084 229.315415,22.3244435 229.156,22.159 C228.992592,21.9997551 228.902139,21.7801366 228.906,21.552 C228.906,21.316 228.989,21.112 229.156,20.945 L229.157,20.945 Z M232.483,20.945 C232.642415,20.7795565 232.863276,20.6875916 233.093,20.691 C233.328,20.691 233.531,20.775 233.699,20.945 C233.869,21.113 233.952,21.315 233.952,21.552 C233.952,21.788 233.868,21.992 233.698,22.159 C233.53955,22.3246435 233.319196,22.4166993 233.09,22.413 C232.860276,22.4164084 232.639415,22.3244435 232.48,22.159 C232.316592,21.9997551 232.226139,21.7801366 232.23,21.552 C232.23,21.316 232.313,21.112 232.48,20.945 L232.483,20.945 Z M242.5,24.526 C241.872085,24.5220783 241.244182,24.5354166 240.617,24.566 C240.297,24.586 239.985,24.604 239.687,24.628 C239.387,24.648 239.122,24.678 238.885,24.712 C238.94,24.509 238.969,24.329 238.969,24.172 C238.969,24.048 238.939,23.872 238.884,23.648 C239.626,23.671 240.354,23.691 241.062,23.708 C242.514505,23.7386696 243.967495,23.7386696 245.42,23.708 C246.13,23.691 246.855,23.672 247.6,23.648 C247.550449,23.8240133 247.521917,24.0052756 247.515,24.188 C247.515,24.335 247.542,24.508 247.599,24.712 C247.332046,24.6747607 247.063886,24.646744 246.795,24.628 C246.166096,24.5775531 245.535806,24.5462054 244.905,24.534 C244.585,24.528 244.275,24.526 243.985,24.526 C243.949,25.684 243.933,26.85 243.933,28.022 L243.933,30.926 C243.933,31.668 243.947,32.401 243.973,33.121 C244.003,33.843 244.035,34.551 244.068,35.249 C243.51657,35.2043259 242.96243,35.2043259 242.411,35.249 C242.446,34.552 242.477,33.843 242.505,33.122 C242.533,32.402 242.548,31.67 242.548,30.928 L242.548,28.024 C242.548,26.852 242.53,25.686 242.498,24.528 L242.5,24.526 Z M251.972,24.526 C251.344086,24.52215 250.716184,24.5354883 250.089,24.566 C249.769,24.586 249.459,24.604 249.161,24.628 C248.863,24.648 248.596,24.678 248.359,24.712 C248.411332,24.5366361 248.43959,24.354974 248.443,24.172 C248.443,24.048 248.416,23.872 248.359,23.648 C249.103,23.671 249.829,23.691 250.537,23.708 C251.989504,23.7387261 253.442496,23.7387261 254.895,23.708 C255.605,23.691 256.331,23.672 257.073,23.648 C257.024784,23.8242688 256.996606,24.0054141 256.989,24.188 C256.989,24.335 257.019,24.508 257.073,24.712 C256.807367,24.6749047 256.540545,24.6468884 256.273,24.628 C255.643115,24.5772281 255.011816,24.5458799 254.38,24.534 C254.073365,24.5284496 253.766685,24.5257828 253.46,24.526 C253.425735,25.6910226 253.408067,26.8564741 253.407,28.022 L253.407,30.926 C253.407,31.668 253.421,32.401 253.45,33.121 C253.477,33.843 253.51,34.551 253.542,35.249 C252.991581,35.2041014 252.438419,35.2041014 251.888,35.249 C251.921,34.552 251.952,33.843 251.982,33.122 C252.009,32.402 252.022,31.67 252.022,30.928 L252.022,28.024 C252.022,26.852 252.005,25.686 251.972,24.528 L251.972,24.526 Z M259.106,25.834 C259.079,25.119 259.046,24.391 259.014,23.646 C259.16,23.669 259.301,23.689 259.436,23.706 C259.705053,23.7379736 259.976947,23.7379736 260.246,23.706 C260.381,23.689 260.521,23.67 260.668,23.646 C260.635,24.39 260.604,25.119 260.574,25.834 C260.547,26.549 260.534,27.277 260.534,28.022 L260.534,30.926 C260.534,31.668 260.547,32.401 260.574,33.121 C260.604,33.843 260.634,34.551 260.668,35.249 C260.117565,35.2044878 259.564435,35.2044878 259.014,35.249 C259.047,34.552 259.078,33.843 259.106,33.122 C259.136,32.402 259.149,31.67 259.149,30.928 L259.149,28.024 C259.149,27.28 259.135,26.551 259.105,25.836 L259.106,25.834 Z M269.298,30.866 C267.835,29.296 266.372,27.733 264.908,26.18 C264.871898,27.3223005 264.855229,28.4651325 264.858,29.608 C264.856,29.844 264.86,30.138 264.866,30.488 C264.87,30.838 264.876,31.202 264.882,31.585 C264.888,31.968 264.898,32.355 264.907,32.749 C264.919,33.143 264.93,33.509 264.942,33.849 C264.952,34.184 264.962,34.481 264.975,34.733 C264.987,34.987 264.995,35.159 265.008,35.249 C264.604155,35.2057428 264.196845,35.2057428 263.793,35.249 C263.813,35.136 263.84,34.929 263.869,34.624 C263.895,34.319 263.921,33.958 263.942,33.534 C263.965,33.112 263.992,32.654 264.018,32.159 C264.046,31.663 264.068,31.169 264.085,30.673 C264.116049,29.7666107 264.13605,28.8598767 264.145,27.953 C264.145,26.873 264.142,25.943 264.135,25.167 C264.134735,24.5874162 264.120731,24.0079201 264.093,23.429 L264.363,23.429 C265.05,24.171 265.783,24.969 266.567,25.819 C267.347,26.669 268.125,27.507 268.897,28.334 C269.667,29.162 270.4,29.944 271.091,30.682 C271.781,31.42 272.388,32.047 272.905,32.565 L272.905,30.27 C272.905,29.087 272.897,27.937 272.882,26.816 C272.866556,25.7600361 272.829882,24.7044894 272.772,23.65 C272.998,23.707 273.189,23.734 273.345,23.734 C273.48,23.734 273.661,23.707 273.885,23.65 C273.865,23.898 273.837,24.27 273.81,24.765 C273.783,25.261 273.753,25.788 273.726,26.353 C273.696,26.916 273.67,27.466 273.649,28.007 C273.626,28.547 273.616,28.982 273.616,29.307 L273.616,30.32 C273.616,30.703 273.618,31.103 273.624,31.52 L273.642,32.78 C273.646,33.2 273.652,33.593 273.658,33.96 C273.664,34.326 273.668,34.645 273.668,34.914 L273.668,35.474 L273.432,35.474 C272.082743,33.9112554 270.703147,32.3749635 269.294,30.866 L269.298,30.866 Z M286.194,25.1 C285.932461,24.8917596 285.648745,24.7130115 285.348,24.567 C285.018062,24.4091537 284.672962,24.2851857 284.318,24.197 C283.923573,24.0989247 283.51843,24.0505495 283.112,24.053 C282.412,24.053 281.762,24.16 281.162,24.373 C280.571184,24.5804026 280.034601,24.9180739 279.592,25.361 C279.146,25.807 278.798,26.371 278.544,27.051 C278.29,27.731 278.164,28.541 278.164,29.474 C278.164,30.296 278.276,31.038 278.501,31.704 C278.727,32.368 279.057,32.927 279.491,33.384 C279.924,33.839 280.453,34.191 281.078,34.439 C281.703,34.687 282.408,34.809 283.198,34.809 C283.699147,34.8113093 284.199385,34.7661071 284.692,34.674 C284.932,34.63 285.158,34.574 285.367,34.507 C285.577,34.439 285.752,34.361 285.897,34.269 C285.91,33.933 285.917,33.595 285.923,33.257 C285.928,32.919 285.931,32.575 285.931,32.227 C285.931,31.833 285.923,31.439 285.908,31.044 C285.89,30.649 285.871,30.274 285.848,29.914 C286.237081,29.993026 286.635603,30.0149228 287.031,29.979 C287.150946,29.9691611 287.269567,29.9470454 287.385,29.913 C287.365,30.171 287.345,30.581 287.335,31.138 C287.325,31.695 287.318,32.428 287.318,33.341 C287.318,33.566 287.32,33.794 287.326,34.025 C287.332,34.255 287.334,34.485 287.334,34.709 C287.098,34.799 286.804,34.893 286.447,34.989 C286.093,35.084 285.717,35.164 285.317,35.224 C284.917,35.287 284.517,35.341 284.117,35.392 C283.719,35.444 283.353,35.472 283.029,35.472 C282.025,35.472 281.123,35.348 280.319,35.108 C279.513,34.866 278.829,34.491 278.265,33.985 C277.692317,33.461969 277.24753,32.8142913 276.965,32.092 C276.661,31.338 276.509,30.465 276.509,29.475 C276.509,28.518 276.667,27.665 276.982,26.915 C277.299,26.168 277.742,25.535 278.317,25.015 C278.891,24.498 279.587,24.105 280.403,23.835 C281.22,23.565 282.123,23.43 283.115,23.43 C283.689,23.43 284.197,23.46 284.642,23.522 C285.086,23.585 285.482,23.667 285.822,23.768 C286.167,23.87 286.468,23.975 286.727,24.088 C286.987,24.201 287.217,24.308 287.42,24.408 C287.328,24.566 287.246,24.768 287.174,25.015 C287.102,25.263 287.054,25.495 287.031,25.708 L286.827,25.708 C286.63704,25.4854571 286.425322,25.282449 286.195,25.102 L286.194,25.1 Z M290.33,25.81 C290.304,25.088 290.27,24.368 290.237,23.647 C290.745,23.67 291.249,23.69 291.749,23.707 C292.75308,23.7388834 293.75792,23.7388834 294.762,23.707 C295.258,23.69 295.76,23.671 296.266,23.647 C296.200276,23.981805 296.200276,24.326195 296.266,24.661 C295.906,24.641 295.576,24.616 295.278,24.593 C294.98,24.573 294.664,24.548 294.332,24.527 C293.968913,24.5027435 293.605555,24.4827421 293.242,24.467 C292.769538,24.4496567 292.296779,24.4416551 291.824,24.443 C291.812,24.803 291.799,25.146 291.781,25.473 C291.765,25.798 291.758,26.169 291.758,26.587 C291.758,27.027 291.76,27.454 291.766,27.87 C291.772,28.286 291.774,28.6 291.774,28.815 C292.27,28.815 292.714,28.809 293.108,28.797 C293.503,28.787 293.862,28.772 294.19,28.757 C294.516,28.737 294.817,28.721 295.092,28.705 C295.367,28.687 295.629,28.668 295.877,28.645 C295.809583,28.9850238 295.809583,29.3349762 295.877,29.675 C295.537258,29.6360092 295.196444,29.6069967 294.855,29.588 C294.466639,29.56651 294.0779,29.5525074 293.689,29.546 C293.323661,29.5403698 292.958327,29.5343698 292.593,29.528 C292.319695,29.5229823 292.046351,29.5203156 291.773,29.52 C291.773,29.622 291.771,29.73 291.765,29.85 C291.758741,29.9989141 291.756074,30.1479574 291.757,30.297 L291.757,31.968 C291.757,32.61 291.759,33.138 291.765,33.558 C291.771,33.973 291.779,34.288 291.79,34.502 L292.972,34.502 C293.4,34.502 293.82,34.492 294.23,34.477 C294.642,34.457 295.03,34.437 295.396,34.407 C295.76,34.381 296.079,34.337 296.348,34.281 C296.325,34.361 296.311,34.447 296.308,34.543 C296.301,34.639 296.298,34.727 296.298,34.805 C296.298,34.985 296.315,35.131 296.348,35.245 C295.844289,35.2232165 295.340181,35.2118807 294.836,35.211 L291.772,35.211 C291.266,35.211 290.752,35.223 290.235,35.244 C290.267,34.524 290.3,33.806 290.328,33.092 C290.356,32.378 290.368,31.649 290.368,30.904 L290.368,28 C290.366713,27.2684786 290.35271,26.5370348 290.326,25.806 L290.33,25.81 Z M304.27,30.866 C302.808,29.296 301.343,27.733 299.88,26.18 C299.868,26.496 299.86,26.918 299.847,27.446 C299.835,27.976 299.829,28.696 299.829,29.608 C299.829,29.844 299.832,30.138 299.836,30.488 L299.854,31.585 C299.86,31.968 299.868,32.355 299.879,32.749 C299.891,33.143 299.902,33.509 299.914,33.849 C299.924,34.184 299.934,34.481 299.947,34.733 C299.959,34.987 299.967,35.159 299.98,35.249 C299.575484,35.2057979 299.167516,35.2057979 298.763,35.249 C298.787,35.136 298.813,34.929 298.84,34.624 C298.87,34.319 298.895,33.958 298.916,33.534 C298.939,33.112 298.966,32.654 298.992,32.159 C299.019,31.663 299.042,31.169 299.06,30.673 C299.091049,29.7666107 299.11105,28.8598767 299.12,27.953 C299.12,26.873 299.117,25.943 299.11,25.167 C299.109735,24.5874162 299.095731,24.0079201 299.068,23.429 L299.338,23.429 C300.026,24.171 300.76,24.969 301.543,25.819 C303.04324,27.4478435 304.551592,29.0691969 306.068,30.683 C306.758,31.42 307.365,32.047 307.882,32.565 L307.882,30.27 C307.882,29.087 307.874,27.937 307.857,26.816 C307.842517,25.7600126 307.805842,24.7044462 307.747,23.65 C307.973,23.707 308.164,23.734 308.322,23.734 C308.457,23.734 308.638,23.707 308.862,23.65 C308.84,23.898 308.814,24.27 308.787,24.765 C308.757,25.261 308.73,25.788 308.703,26.353 C308.673,26.916 308.648,27.466 308.627,28.007 C308.604,28.547 308.594,28.982 308.594,29.307 L308.594,30.32 C308.594,30.703 308.596,31.103 308.602,31.52 C308.608,31.937 308.612,32.355 308.62,32.78 C308.624,33.2 308.63,33.593 308.636,33.96 C308.642,34.326 308.644,34.645 308.644,34.914 L308.644,35.474 L308.408,35.474 C307.058248,33.9119906 305.679,32.3757145 304.271,30.866 L304.27,30.866 Z" transform="translate(116)"/>
    <polygon fill="#BBC2D0" points="99.834 2.656 99.834 35.49 98.961 35.49 98.961 2.655"/>
    <path fill="#003867" d="M65.914,23.312 L65.914,30.874 L73.714,30.874 C74.037,30.874 74.347,30.856 74.644,30.822 C74.2142925,31.5965993 73.5659941,32.2275077 72.78,32.636 C71.973,33.056 71.01,33.264 69.89,33.264 L62.09,33.264 L62.09,23.312 L65.914,23.312 L65.914,23.312 Z M65.914,9.484 L65.914,16.462 L73.244,16.462 C73.601,16.462 73.946,16.442 74.274,16.402 C74.042,16.868 73.722,17.274 73.317,17.619 C72.362,18.441 71.06,18.852 69.417,18.852 L62.09,18.852 L62.09,9.482 L65.914,9.482 L65.914,9.484 Z M78.81,23.67 C78.6393466,23.4359556 78.457814,23.2100409 78.266,22.993 C77.856,22.393 77.296,21.913 76.582,21.55 C76.1699099,21.3019003 75.7377268,21.0888193 75.29,20.913 C76.066,20.615 76.79,20.143 77.462,19.503 C78.137,18.846 78.672,18.047 79.076,17.103 C79.496,16.148 79.706,15.11 79.706,13.99 C79.706,12.18 79.301,10.606 78.496,9.26 C77.702,7.902 76.552,6.863 75.043,6.144 C73.548,5.414 71.816,5.048 69.843,5.048 L60.938,5.048 L60.938,2.655 L73.668,2.655 C75.641,2.655 77.374,3.021 78.868,3.755 C80.374,4.472 81.525,5.51 82.318,6.87 C83.126,8.215 83.528,9.792 83.528,11.598 C83.528,12.718 83.318,13.758 82.901,14.713 C82.5284708,15.6121616 81.9804624,16.4280551 81.289,17.113 C80.619,17.755 79.893,18.225 79.114,18.523 C80.519,19.061 81.691,19.979 82.634,21.28 C83.574,22.58 84.046,24.187 84.046,26.1 C84.046,28.072 83.626,29.752 82.792,31.14 C81.969,32.516 80.802,33.562 79.296,34.278 C78.9,34.466 78.486,34.628 78.061,34.763 C78.398,34.387 78.701,33.977 78.967,33.533 C79.802,32.141 80.221,30.461 80.221,28.49 C80.221,26.578 79.751,24.972 78.811,23.67 L78.81,23.67 Z M20.737,4.89 C21.234,5.248 21.719,5.648 22.187,6.085 L19.004,9.222 C18.3897683,8.60988644 17.6789237,8.10310557 16.9,7.722 C16.1633935,7.35210593 15.3783441,7.08784186 14.568,6.937 C13.6891371,6.76584276 12.7953475,6.68309686 11.9,6.69 C10.943,6.69 10.087,6.82 9.333,7.08 C9.448,6.685 9.611,6.315 9.823,5.97 C10.3,5.193 10.985,4.587 11.883,4.154 C12.78,3.721 13.849,3.504 15.09,3.504 C16.06,3.504 16.95,3.587 17.756,3.752 C18.5658603,3.90173127 19.3503571,4.16569927 20.086,4.536 C20.306,4.641 20.526,4.76 20.736,4.89 L20.737,4.89 Z M18.263,27.467 C18.368,27.057 18.423,26.615 18.423,26.144 C18.423,24.664 17.989,23.538 17.123,22.76 C16.733,22.37 16.277,22.08 15.755,21.887 C15.247,21.677 14.515,21.507 13.56,21.371 L9.704,20.834 C7.044,20.46 4.974,19.584 3.496,18.21 C1.913,16.73 1.121,14.654 1.121,11.98 C1.121,10.083 1.561,8.41 2.445,6.96 C3.192,5.73 4.212,4.738 5.508,3.98 C4.71,5.38 4.31,6.986 4.31,8.793 C4.31,11.468 5.1,13.545 6.685,15.023 C8.165,16.398 10.232,17.273 12.893,17.645 L16.747,18.182 C17.703,18.32 18.437,18.492 18.944,18.7 C19.464,18.893 19.922,19.185 20.31,19.574 C21.176,20.351 21.612,21.478 21.612,22.957 C21.608,24.542 21.012,25.774 19.817,26.655 C19.364,26.99 18.847,27.262 18.263,27.469 L18.263,27.467 Z M0,31.3 L3.208,28.133 C4.742,29.66 6.423,30.76 8.252,31.429 C10.106,32.085 12.279,32.413 14.774,32.413 C16.492,32.413 18.06,32.203 19.48,31.786 C20.46,31.486 21.353,31.092 22.16,30.601 C21.60777,31.5521143 20.8794631,32.3893617 20.014,33.068 C18.954,33.903 17.712,34.54 16.292,34.971 C14.874,35.391 13.306,35.598 11.586,35.601 C9.091,35.601 6.918,35.271 5.066,34.614 C3.225,33.944 1.54,32.836 0,31.3 Z M30.6,2.655 L34.425,2.655 L34.425,24.082 C34.425,25.516 34.7,26.772 35.253,27.847 C35.361,28.055 35.479,28.25 35.603,28.44 C34.9655382,28.3078429 34.3518644,28.0795697 33.783,27.763 C32.774018,27.1897178 31.9557784,26.332531 31.43,25.298 C30.876,24.222 30.6,22.966 30.6,21.533 L30.6,2.656 L30.6,2.655 Z M52.914,24.305 C52.914,26.515 52.406,28.482 51.392,30.201 C50.392812,31.9025096 48.931164,33.2854402 47.177,34.189 C45.401,35.131 43.397,35.602 41.171,35.602 C38.961,35.602 36.966,35.132 35.189,34.189 C34.1808666,33.6617876 33.2646915,32.9749095 32.476,32.155 C33.961,32.753 35.586,33.051 37.348,33.051 C39.573,33.051 41.578,32.581 43.354,31.639 C45.1076674,30.7351059 46.5689087,29.3522321 47.568,27.651 C48.584,25.933 49.092,23.968 49.092,21.757 L49.092,2.656 L52.916,2.656 L52.916,24.306 L52.914,24.305 Z"/>
  </g>
</svg>
