<svg xmlns="http://www.w3.org/2000/svg" width="512" height="512" viewBox="0 0 512 512">
  <path d="M306.25,237.5 L318.75,237.5 C322.20178,237.5 325,234.70178 325,231.25 L325,218.75 C325,215.29822 322.20178,212.5 318.75,212.5 L306.25,212.5 C302.79822,212.5 300,215.29822 300,218.75 L300,231.25 C300,234.70178 302.79822,237.5 306.25,237.5 Z M306.25,337.5 L318.75,337.5 C322.20178,337.5 325,334.70178 325,331.25 L325,318.75 C325,315.29822 322.20178,312.5 318.75,312.5 L306.25,312.5 C302.79822,312.5 300,315.29822 300,318.75 L300,331.25 C300,334.70178 302.79822,337.5 306.25,337.5 Z M62.5,100 L37.5,100 C16.7893219,100 0,116.789322 0,137.5 L0,362.5 C0,383.210678 16.7893219,400 37.5,400 L62.5,400 C83.2106781,400 100,383.210678 100,362.5 L100,137.5 C100,116.789322 83.2106781,100 62.5,100 Z M75,362.5 C75,369.403559 69.4035594,375 62.5,375 L37.5,375 C30.5964406,375 25,369.403559 25,362.5 L25,137.5 C25,130.596441 30.5964406,125 37.5,125 L62.5,125 C69.4035594,125 75,130.596441 75,137.5 L75,362.5 Z M306.25,287.5 L318.75,287.5 C322.20178,287.5 325,284.70178 325,281.25 L325,268.75 C325,265.29822 322.20178,262.5 318.75,262.5 L306.25,262.5 C302.79822,262.5 300,265.29822 300,268.75 L300,281.25 C300,284.70178 302.79822,287.5 306.25,287.5 Z M206.25,337.5 L218.75,337.5 C222.20178,337.5 225,334.70178 225,331.25 L225,318.75 C225,315.29822 222.20178,312.5 218.75,312.5 L206.25,312.5 C202.79822,312.5 200,315.29822 200,318.75 L200,331.25 C200,334.70178 202.79822,337.5 206.25,337.5 Z M206.25,287.5 L218.75,287.5 C222.20178,287.5 225,284.70178 225,281.25 L225,268.75 C225,265.29822 222.20178,262.5 218.75,262.5 L206.25,262.5 C202.79822,262.5 200,265.29822 200,268.75 L200,281.25 C200,284.70178 202.79822,287.5 206.25,287.5 Z M375,127.296875 L375,85.3515625 C374.998998,78.7196187 372.362904,72.35983 367.671875,67.671875 L307.328125,7.328125 C302.64017,2.63709606 296.280381,2.77555756e-15 289.648438,2.77555756e-15 L162.5,2.77555756e-15 C141.789322,2.77555756e-15 125,16.7893219 125,37.5 L125,362.5 C125,383.210678 141.789322,400 162.5,400 L362.5,400 C383.210678,400 400,383.210678 400,362.5 L400,162.5 C399.965953,146.654324 389.949605,132.550055 375,127.296875 Z M300,35.3515625 L339.648438,75 L300,75 L300,35.3515625 Z M150,37.5 C150,30.5964406 155.596441,25 162.5,25 L275,25 L275,75 C275,88.8071188 286.192881,100 300,100 L350,100 L350,150 L150,150 L150,37.5 Z M375,362.5 C375,369.403559 369.403559,375 362.5,375 L162.5,375 C155.596441,375 150,369.403559 150,362.5 L150,175 L375,175 L375,362.5 Z M256.25,337.5 L268.75,337.5 C272.20178,337.5 275,334.70178 275,331.25 L275,318.75 C275,315.29822 272.20178,312.5 268.75,312.5 L256.25,312.5 C252.79822,312.5 250,315.29822 250,318.75 L250,331.25 C250,334.70178 252.79822,337.5 256.25,337.5 Z M256.25,287.5 L268.75,287.5 C272.20178,287.5 275,284.70178 275,281.25 L275,268.75 C275,265.29822 272.20178,262.5 268.75,262.5 L256.25,262.5 C252.79822,262.5 250,265.29822 250,268.75 L250,281.25 C250,284.70178 252.79822,287.5 256.25,287.5 Z M256.25,237.5 L268.75,237.5 C272.20178,237.5 275,234.70178 275,231.25 L275,218.75 C275,215.29822 272.20178,212.5 268.75,212.5 L256.25,212.5 C252.79822,212.5 250,215.29822 250,218.75 L250,231.25 C250,234.70178 252.79822,237.5 256.25,237.5 Z M206.25,237.5 L218.75,237.5 C222.20178,237.5 225,234.70178 225,231.25 L225,218.75 C225,215.29822 222.20178,212.5 218.75,212.5 L206.25,212.5 C202.79822,212.5 200,215.29822 200,218.75 L200,231.25 C200,234.70178 202.79822,237.5 206.25,237.5 Z" transform="translate(56 56)"/>
</svg>
