<svg xmlns="http://www.w3.org/2000/svg" width="512" height="512" viewBox="0 0 512 512">
  <path d="M25,362.5 C25,383.210678 41.7893219,400 62.5,400 L287.5,400 C308.210678,400 325,383.210678 325,362.5 L325,100 L25,100 L25,362.5 Z M237.5,162.5 C237.5,155.596441 243.096441,150 250,150 C256.903559,150 262.5,155.596441 262.5,162.5 L262.5,337.5 C262.5,344.403559 256.903559,350 250,350 C243.096441,350 237.5,344.403559 237.5,337.5 L237.5,162.5 Z M162.5,162.5 C162.5,155.596441 168.096441,150 175,150 C181.903559,150 187.5,155.596441 187.5,162.5 L187.5,337.5 C187.5,344.403559 181.903559,350 175,350 C168.096441,350 162.5,344.403559 162.5,337.5 L162.5,162.5 Z M87.5,162.5 C87.5,155.596441 93.0964406,150 100,150 C106.903559,150 112.5,155.596441 112.5,162.5 L112.5,337.5 C112.5,344.403559 106.903559,350 100,350 C93.0964406,350 87.5,344.403559 87.5,337.5 L87.5,162.5 Z M337.5,25 L243.75,25 L236.40625,10.390625 C233.233147,4.01986514 226.726617,-0.00510458256 219.609375,-0.000137711715 L130.3125,-0.000137711715 C123.208644,-0.0273086271 116.714386,4.00884217 113.59375,10.390625 L106.25,25 L12.5,25 C5.59644063,25 0,30.5964406 0,37.5 L0,62.5 C0,69.4035594 5.59644063,75 12.5,75 L337.5,75 C344.403559,75 350,69.4035594 350,62.5 L350,37.5 C350,30.5964406 344.403559,25 337.5,25 Z" transform="translate(81 56)"/>
</svg>
